^F:\PROJECT_REZA\OFFLINE\OPENPLANE\OPENPLANE.CPP
/c /ZI /JMC /nologo /W3 /WX- /diagnostics:column /sdl /Od /Oy- /D WIN32 /D _DEBUG /D _CONSOLE /D _UNICODE /D UNICODE /Gm- /EHsc /RTC1 /MDd /GS /fp:precise /permissive- /Zc:wchar_t /Zc:forScope /Zc:inline /Fo"DEBUG\\" /Fd"DEBUG\VC142.PDB" /Gd /TP /analyze- /FC F:\PROJECT_REZA\OFFLINE\OPENPLANE\OPENPLANE.CPP
^F:\PROJECT_REZA\CLOUD\OPENPLANE\GAMEPLAYGL.CPP
/c /IF:\PROJECT_REZA\CLOUD\OPENPLANE\\LINKEDFILES\GLFW\INCLUDE /IF:\PROJECT_REZA\CLOUD\OPENPLANE\\LINKEDFILES\GLEW\INCLUDE /IF:\PROJECT_REZA\CLOUD\OPENPLANE\\LINKEDFILES\GLM\INCLUDE /IF:\PROJECT_REZA\CLOUD\OPENPLANE\\LINKEDFILES\SOIL2\INCLUDE /ZI /JMC /nologo /W3 /WX- /diagnostics:column /sdl /Od /Oy- /D WIN32 /D _DEBUG /D _CONSOLE /D _UNICODE /D UNICODE /Gm- /EHsc /RTC1 /MDd /GS /fp:precise /permissive- /Zc:wchar_t /Zc:forScope /Zc:inline /Fo"DEBUG\\" /Fd"DEBUG\VC142.PDB" /Gd /TP /analyze- /FC F:\PROJECT_REZA\CLOUD\OPENPLANE\GAMEPLAYGL.CPP
^F:\PROJECT_REZA\CLOUD\OPENPLANE\OPENPLANE.CPP
/c /IF:\PROJECT_REZA\CLOUD\OPENPLANE\\LINKEDFILES\GLFW\INCLUDE /IF:\PROJECT_REZA\CLOUD\OPENPLANE\\LINKEDFILES\GLEW\INCLUDE /IF:\PROJECT_REZA\CLOUD\OPENPLANE\\LINKEDFILES\GLM\INCLUDE /IF:\PROJECT_REZA\CLOUD\OPENPLANE\\LINKEDFILES\SOIL2\INCLUDE /ZI /JMC /nologo /W3 /WX- /diagnostics:column /sdl /Od /Oy- /D WIN32 /D _DEBUG /D _CONSOLE /D _UNICODE /D UNICODE /Gm- /EHsc /RTC1 /MDd /GS /fp:precise /permissive- /Zc:wchar_t /Zc:forScope /Zc:inline /Fo"DEBUG\\" /Fd"DEBUG\VC142.PDB" /Gd /TP /analyze- /FC F:\PROJECT_REZA\CLOUD\OPENPLANE\OPENPLANE.CPP
