^F:\PROJECT_REZA\OFFLINE\OPENPLANE\OPENPLANE.CPP
C:\PROGRAM FILES (X86)\MICROSOFT VISUAL STUDIO\2019\COMMUNITY\VC\TOOLS\MSVC\14.23.28105\BIN\HOSTX86\X86\1033\CLUI.DLL
C:\WINDOWS\GLOBALIZATION\SORTING\SORTDEFAULT.NLS
C:\WINDOWS\SYSTEM32\TZRES.DLL
F:\PROJECT_REZA\OFFLINE\OPENPLANE\LIBRARYLIST.H
C:\PROGRAM FILES (X86)\MICROSOFT VISUAL STUDIO\2019\COMMUNITY\VC\TOOLS\MSVC\14.23.28105\INCLUDE\IOSTREAM
C:\PROGRAM FILES (X86)\MICROSOFT VISUAL STUDIO\2019\COMMUNITY\VC\TOOLS\MSVC\14.23.28105\INCLUDE\YVALS_CORE.H
C:\PROGRAM FILES (X86)\MICROSOFT VISUAL STUDIO\2019\COMMUNITY\VC\TOOLS\MSVC\14.23.28105\INCLUDE\CRTDEFS.H
C:\PROGRAM FILES (X86)\MICROSOFT VISUAL STUDIO\2019\COMMUNITY\VC\TOOLS\MSVC\14.23.28105\INCLUDE\VCRUNTIME.H
C:\PROGRAM FILES (X86)\MICROSOFT VISUAL STUDIO\2019\COMMUNITY\VC\TOOLS\MSVC\14.23.28105\INCLUDE\SAL.H
C:\PROGRAM FILES (X86)\MICROSOFT VISUAL STUDIO\2019\COMMUNITY\VC\TOOLS\MSVC\14.23.28105\INCLUDE\CONCURRENCYSAL.H
C:\PROGRAM FILES (X86)\MICROSOFT VISUAL STUDIO\2019\COMMUNITY\VC\TOOLS\MSVC\14.23.28105\INCLUDE\VADEFS.H
C:\PROGRAM FILES (X86)\WINDOWS KITS\10\INCLUDE\10.0.18362.0\UCRT\CORECRT.H
C:\PROGRAM FILES (X86)\MICROSOFT VISUAL STUDIO\2019\COMMUNITY\VC\TOOLS\MSVC\14.23.28105\INCLUDE\XKEYCHECK.H
C:\PROGRAM FILES (X86)\MICROSOFT VISUAL STUDIO\2019\COMMUNITY\VC\TOOLS\MSVC\14.23.28105\INCLUDE\ISTREAM
C:\PROGRAM FILES (X86)\MICROSOFT VISUAL STUDIO\2019\COMMUNITY\VC\TOOLS\MSVC\14.23.28105\INCLUDE\OSTREAM
C:\PROGRAM FILES (X86)\MICROSOFT VISUAL STUDIO\2019\COMMUNITY\VC\TOOLS\MSVC\14.23.28105\INCLUDE\IOS
C:\PROGRAM FILES (X86)\MICROSOFT VISUAL STUDIO\2019\COMMUNITY\VC\TOOLS\MSVC\14.23.28105\INCLUDE\XLOCNUM
C:\PROGRAM FILES (X86)\MICROSOFT VISUAL STUDIO\2019\COMMUNITY\VC\TOOLS\MSVC\14.23.28105\INCLUDE\CLIMITS
C:\PROGRAM FILES (X86)\MICROSOFT VISUAL STUDIO\2019\COMMUNITY\VC\TOOLS\MSVC\14.23.28105\INCLUDE\LIMITS.H
C:\PROGRAM FILES (X86)\MICROSOFT VISUAL STUDIO\2019\COMMUNITY\VC\TOOLS\MSVC\14.23.28105\INCLUDE\CMATH
C:\PROGRAM FILES (X86)\MICROSOFT VISUAL STUDIO\2019\COMMUNITY\VC\TOOLS\MSVC\14.23.28105\INCLUDE\YVALS.H
C:\PROGRAM FILES (X86)\WINDOWS KITS\10\INCLUDE\10.0.18362.0\UCRT\CRTDBG.H
C:\PROGRAM FILES (X86)\MICROSOFT VISUAL STUDIO\2019\COMMUNITY\VC\TOOLS\MSVC\14.23.28105\INCLUDE\VCRUNTIME_NEW_DEBUG.H
C:\PROGRAM FILES (X86)\MICROSOFT VISUAL STUDIO\2019\COMMUNITY\VC\TOOLS\MSVC\14.23.28105\INCLUDE\VCRUNTIME_NEW.H
C:\PROGRAM FILES (X86)\MICROSOFT VISUAL STUDIO\2019\COMMUNITY\VC\TOOLS\MSVC\14.23.28105\INCLUDE\USE_ANSI.H
C:\PROGRAM FILES (X86)\MICROSOFT VISUAL STUDIO\2019\COMMUNITY\VC\TOOLS\MSVC\14.23.28105\INCLUDE\CSTDLIB
C:\PROGRAM FILES (X86)\WINDOWS KITS\10\INCLUDE\10.0.18362.0\UCRT\MATH.H
C:\PROGRAM FILES (X86)\WINDOWS KITS\10\INCLUDE\10.0.18362.0\UCRT\CORECRT_MATH.H
C:\PROGRAM FILES (X86)\WINDOWS KITS\10\INCLUDE\10.0.18362.0\UCRT\STDLIB.H
C:\PROGRAM FILES (X86)\WINDOWS KITS\10\INCLUDE\10.0.18362.0\UCRT\CORECRT_MALLOC.H
C:\PROGRAM FILES (X86)\WINDOWS KITS\10\INCLUDE\10.0.18362.0\UCRT\CORECRT_SEARCH.H
C:\PROGRAM FILES (X86)\WINDOWS KITS\10\INCLUDE\10.0.18362.0\UCRT\STDDEF.H
C:\PROGRAM FILES (X86)\WINDOWS KITS\10\INCLUDE\10.0.18362.0\UCRT\CORECRT_WSTDLIB.H
C:\PROGRAM FILES (X86)\MICROSOFT VISUAL STUDIO\2019\COMMUNITY\VC\TOOLS\MSVC\14.23.28105\INCLUDE\XTGMATH.H
C:\PROGRAM FILES (X86)\MICROSOFT VISUAL STUDIO\2019\COMMUNITY\VC\TOOLS\MSVC\14.23.28105\INCLUDE\XTR1COMMON
C:\PROGRAM FILES (X86)\MICROSOFT VISUAL STUDIO\2019\COMMUNITY\VC\TOOLS\MSVC\14.23.28105\INCLUDE\CSTDIO
C:\PROGRAM FILES (X86)\WINDOWS KITS\10\INCLUDE\10.0.18362.0\UCRT\STDIO.H
C:\PROGRAM FILES (X86)\WINDOWS KITS\10\INCLUDE\10.0.18362.0\UCRT\CORECRT_WSTDIO.H
C:\PROGRAM FILES (X86)\WINDOWS KITS\10\INCLUDE\10.0.18362.0\UCRT\CORECRT_STDIO_CONFIG.H
C:\PROGRAM FILES (X86)\MICROSOFT VISUAL STUDIO\2019\COMMUNITY\VC\TOOLS\MSVC\14.23.28105\INCLUDE\STREAMBUF
C:\PROGRAM FILES (X86)\MICROSOFT VISUAL STUDIO\2019\COMMUNITY\VC\TOOLS\MSVC\14.23.28105\INCLUDE\XIOSBASE
C:\PROGRAM FILES (X86)\WINDOWS KITS\10\INCLUDE\10.0.18362.0\UCRT\SHARE.H
C:\PROGRAM FILES (X86)\WINDOWS KITS\10\INCLUDE\10.0.18362.0\UCRT\CORECRT_SHARE.H
C:\PROGRAM FILES (X86)\MICROSOFT VISUAL STUDIO\2019\COMMUNITY\VC\TOOLS\MSVC\14.23.28105\INCLUDE\SYSTEM_ERROR
C:\PROGRAM FILES (X86)\MICROSOFT VISUAL STUDIO\2019\COMMUNITY\VC\TOOLS\MSVC\14.23.28105\INCLUDE\CERRNO
C:\PROGRAM FILES (X86)\WINDOWS KITS\10\INCLUDE\10.0.18362.0\UCRT\ERRNO.H
C:\PROGRAM FILES (X86)\MICROSOFT VISUAL STUDIO\2019\COMMUNITY\VC\TOOLS\MSVC\14.23.28105\INCLUDE\STDEXCEPT
C:\PROGRAM FILES (X86)\MICROSOFT VISUAL STUDIO\2019\COMMUNITY\VC\TOOLS\MSVC\14.23.28105\INCLUDE\EXCEPTION
C:\PROGRAM FILES (X86)\MICROSOFT VISUAL STUDIO\2019\COMMUNITY\VC\TOOLS\MSVC\14.23.28105\INCLUDE\TYPE_TRAITS
C:\PROGRAM FILES (X86)\MICROSOFT VISUAL STUDIO\2019\COMMUNITY\VC\TOOLS\MSVC\14.23.28105\INCLUDE\XSTDDEF
C:\PROGRAM FILES (X86)\MICROSOFT VISUAL STUDIO\2019\COMMUNITY\VC\TOOLS\MSVC\14.23.28105\INCLUDE\CSTDDEF
C:\PROGRAM FILES (X86)\MICROSOFT VISUAL STUDIO\2019\COMMUNITY\VC\TOOLS\MSVC\14.23.28105\INCLUDE\INITIALIZER_LIST
C:\PROGRAM FILES (X86)\WINDOWS KITS\10\INCLUDE\10.0.18362.0\UCRT\MALLOC.H
C:\PROGRAM FILES (X86)\MICROSOFT VISUAL STUDIO\2019\COMMUNITY\VC\TOOLS\MSVC\14.23.28105\INCLUDE\VCRUNTIME_EXCEPTION.H
C:\PROGRAM FILES (X86)\MICROSOFT VISUAL STUDIO\2019\COMMUNITY\VC\TOOLS\MSVC\14.23.28105\INCLUDE\EH.H
C:\PROGRAM FILES (X86)\WINDOWS KITS\10\INCLUDE\10.0.18362.0\UCRT\CORECRT_TERMINATE.H
C:\PROGRAM FILES (X86)\MICROSOFT VISUAL STUDIO\2019\COMMUNITY\VC\TOOLS\MSVC\14.23.28105\INCLUDE\XSTRING
C:\PROGRAM FILES (X86)\MICROSOFT VISUAL STUDIO\2019\COMMUNITY\VC\TOOLS\MSVC\14.23.28105\INCLUDE\IOSFWD
C:\PROGRAM FILES (X86)\MICROSOFT VISUAL STUDIO\2019\COMMUNITY\VC\TOOLS\MSVC\14.23.28105\INCLUDE\CSTRING
C:\PROGRAM FILES (X86)\WINDOWS KITS\10\INCLUDE\10.0.18362.0\UCRT\STRING.H
C:\PROGRAM FILES (X86)\WINDOWS KITS\10\INCLUDE\10.0.18362.0\UCRT\CORECRT_MEMORY.H
C:\PROGRAM FILES (X86)\WINDOWS KITS\10\INCLUDE\10.0.18362.0\UCRT\CORECRT_MEMCPY_S.H
C:\PROGRAM FILES (X86)\MICROSOFT VISUAL STUDIO\2019\COMMUNITY\VC\TOOLS\MSVC\14.23.28105\INCLUDE\VCRUNTIME_STRING.H
C:\PROGRAM FILES (X86)\WINDOWS KITS\10\INCLUDE\10.0.18362.0\UCRT\CORECRT_WSTRING.H
C:\PROGRAM FILES (X86)\MICROSOFT VISUAL STUDIO\2019\COMMUNITY\VC\TOOLS\MSVC\14.23.28105\INCLUDE\CWCHAR
C:\PROGRAM FILES (X86)\WINDOWS KITS\10\INCLUDE\10.0.18362.0\UCRT\WCHAR.H
C:\PROGRAM FILES (X86)\WINDOWS KITS\10\INCLUDE\10.0.18362.0\UCRT\CORECRT_WCONIO.H
C:\PROGRAM FILES (X86)\WINDOWS KITS\10\INCLUDE\10.0.18362.0\UCRT\CORECRT_WCTYPE.H
C:\PROGRAM FILES (X86)\WINDOWS KITS\10\INCLUDE\10.0.18362.0\UCRT\CORECRT_WDIRECT.H
C:\PROGRAM FILES (X86)\WINDOWS KITS\10\INCLUDE\10.0.18362.0\UCRT\CORECRT_WIO.H
C:\PROGRAM FILES (X86)\WINDOWS KITS\10\INCLUDE\10.0.18362.0\UCRT\CORECRT_WPROCESS.H
C:\PROGRAM FILES (X86)\WINDOWS KITS\10\INCLUDE\10.0.18362.0\UCRT\CORECRT_WTIME.H
C:\PROGRAM FILES (X86)\WINDOWS KITS\10\INCLUDE\10.0.18362.0\UCRT\SYS\STAT.H
C:\PROGRAM FILES (X86)\WINDOWS KITS\10\INCLUDE\10.0.18362.0\UCRT\SYS\TYPES.H
C:\PROGRAM FILES (X86)\MICROSOFT VISUAL STUDIO\2019\COMMUNITY\VC\TOOLS\MSVC\14.23.28105\INCLUDE\XMEMORY
C:\PROGRAM FILES (X86)\MICROSOFT VISUAL STUDIO\2019\COMMUNITY\VC\TOOLS\MSVC\14.23.28105\INCLUDE\CSTDINT
C:\PROGRAM FILES (X86)\MICROSOFT VISUAL STUDIO\2019\COMMUNITY\VC\TOOLS\MSVC\14.23.28105\INCLUDE\STDINT.H
C:\PROGRAM FILES (X86)\MICROSOFT VISUAL STUDIO\2019\COMMUNITY\VC\TOOLS\MSVC\14.23.28105\INCLUDE\LIMITS
C:\PROGRAM FILES (X86)\MICROSOFT VISUAL STUDIO\2019\COMMUNITY\VC\TOOLS\MSVC\14.23.28105\INCLUDE\CFLOAT
C:\PROGRAM FILES (X86)\WINDOWS KITS\10\INCLUDE\10.0.18362.0\UCRT\FLOAT.H
C:\PROGRAM FILES (X86)\MICROSOFT VISUAL STUDIO\2019\COMMUNITY\VC\TOOLS\MSVC\14.23.28105\INCLUDE\NEW
C:\PROGRAM FILES (X86)\MICROSOFT VISUAL STUDIO\2019\COMMUNITY\VC\TOOLS\MSVC\14.23.28105\INCLUDE\XATOMIC.H
C:\PROGRAM FILES (X86)\MICROSOFT VISUAL STUDIO\2019\COMMUNITY\VC\TOOLS\MSVC\14.23.28105\INCLUDE\INTRIN0.H
C:\PROGRAM FILES (X86)\MICROSOFT VISUAL STUDIO\2019\COMMUNITY\VC\TOOLS\MSVC\14.23.28105\INCLUDE\XUTILITY
C:\PROGRAM FILES (X86)\MICROSOFT VISUAL STUDIO\2019\COMMUNITY\VC\TOOLS\MSVC\14.23.28105\INCLUDE\UTILITY
C:\PROGRAM FILES (X86)\MICROSOFT VISUAL STUDIO\2019\COMMUNITY\VC\TOOLS\MSVC\14.23.28105\INCLUDE\XCALL_ONCE.H
C:\PROGRAM FILES (X86)\MICROSOFT VISUAL STUDIO\2019\COMMUNITY\VC\TOOLS\MSVC\14.23.28105\INCLUDE\XERRC.H
C:\PROGRAM FILES (X86)\MICROSOFT VISUAL STUDIO\2019\COMMUNITY\VC\TOOLS\MSVC\14.23.28105\INCLUDE\XLOCALE
C:\PROGRAM FILES (X86)\MICROSOFT VISUAL STUDIO\2019\COMMUNITY\VC\TOOLS\MSVC\14.23.28105\INCLUDE\MEMORY
C:\PROGRAM FILES (X86)\MICROSOFT VISUAL STUDIO\2019\COMMUNITY\VC\TOOLS\MSVC\14.23.28105\INCLUDE\TYPEINFO
C:\PROGRAM FILES (X86)\MICROSOFT VISUAL STUDIO\2019\COMMUNITY\VC\TOOLS\MSVC\14.23.28105\INCLUDE\VCRUNTIME_TYPEINFO.H
C:\PROGRAM FILES (X86)\MICROSOFT VISUAL STUDIO\2019\COMMUNITY\VC\TOOLS\MSVC\14.23.28105\INCLUDE\XFACET
C:\PROGRAM FILES (X86)\MICROSOFT VISUAL STUDIO\2019\COMMUNITY\VC\TOOLS\MSVC\14.23.28105\INCLUDE\XLOCINFO
C:\PROGRAM FILES (X86)\MICROSOFT VISUAL STUDIO\2019\COMMUNITY\VC\TOOLS\MSVC\14.23.28105\INCLUDE\XLOCINFO.H
C:\PROGRAM FILES (X86)\WINDOWS KITS\10\INCLUDE\10.0.18362.0\UCRT\CTYPE.H
C:\PROGRAM FILES (X86)\WINDOWS KITS\10\INCLUDE\10.0.18362.0\UCRT\LOCALE.H
C:\PROGRAM FILES (X86)\MICROSOFT VISUAL STUDIO\2019\COMMUNITY\VC\TOOLS\MSVC\14.23.28105\INCLUDE\FSTREAM
C:\PROGRAM FILES (X86)\MICROSOFT VISUAL STUDIO\2019\COMMUNITY\VC\TOOLS\MSVC\14.23.28105\INCLUDE\STRING
C:\PROGRAM FILES (X86)\MICROSOFT VISUAL STUDIO\2019\COMMUNITY\VC\TOOLS\MSVC\14.23.28105\INCLUDE\CCTYPE
C:\PROGRAM FILES (X86)\MICROSOFT VISUAL STUDIO\2019\COMMUNITY\VC\TOOLS\MSVC\14.23.28105\INCLUDE\VECTOR
C:\PROGRAM FILES (X86)\MICROSOFT VISUAL STUDIO\2019\COMMUNITY\VC\TOOLS\MSVC\14.23.28105\INCLUDE\IOMANIP
C:\PROGRAM FILES (X86)\MICROSOFT VISUAL STUDIO\2019\COMMUNITY\VC\TOOLS\MSVC\14.23.28105\INCLUDE\XLOCMON
C:\PROGRAM FILES (X86)\MICROSOFT VISUAL STUDIO\2019\COMMUNITY\VC\TOOLS\MSVC\14.23.28105\INCLUDE\XLOCTIME
C:\PROGRAM FILES (X86)\MICROSOFT VISUAL STUDIO\2019\COMMUNITY\VC\TOOLS\MSVC\14.23.28105\INCLUDE\CTIME
C:\PROGRAM FILES (X86)\WINDOWS KITS\10\INCLUDE\10.0.18362.0\UCRT\TIME.H
C:\PROGRAM FILES (X86)\MICROSOFT VISUAL STUDIO\2019\COMMUNITY\VC\TOOLS\MSVC\14.23.28105\INCLUDE\CHRONO
C:\PROGRAM FILES (X86)\MICROSOFT VISUAL STUDIO\2019\COMMUNITY\VC\TOOLS\MSVC\14.23.28105\INCLUDE\RATIO
C:\PROGRAM FILES (X86)\MICROSOFT VISUAL STUDIO\2019\COMMUNITY\VC\TOOLS\MSVC\14.23.28105\INCLUDE\THR\XTIMEC.H
C:\PROGRAM FILES (X86)\MICROSOFT VISUAL STUDIO\2019\COMMUNITY\VC\TOOLS\MSVC\14.23.28105\INCLUDE\THREAD
C:\PROGRAM FILES (X86)\WINDOWS KITS\10\INCLUDE\10.0.18362.0\UCRT\PROCESS.H
C:\PROGRAM FILES (X86)\WINDOWS KITS\10\INCLUDE\10.0.18362.0\UCRT\CORECRT_STARTUP.H
C:\PROGRAM FILES (X86)\MICROSOFT VISUAL STUDIO\2019\COMMUNITY\VC\TOOLS\MSVC\14.23.28105\INCLUDE\VCRUNTIME_STARTUP.H
C:\PROGRAM FILES (X86)\MICROSOFT VISUAL STUDIO\2019\COMMUNITY\VC\TOOLS\MSVC\14.23.28105\INCLUDE\THR\XTHREADS.H
C:\PROGRAM FILES (X86)\MICROSOFT VISUAL STUDIO\2019\COMMUNITY\VC\TOOLS\MSVC\14.23.28105\INCLUDE\TUPLE
^F:\PROJECT_REZA\CLOUD\OPENPLANE\GAMEPLAYGL.CPP
F:\PROJECT_REZA\CLOUD\OPENPLANE\GAMEPLAYGL.H
C:\PROGRAM FILES (X86)\MICROSOFT VISUAL STUDIO\2019\COMMUNITY\VC\TOOLS\MSVC\14.23.28105\INCLUDE\IOSTREAM
C:\PROGRAM FILES (X86)\MICROSOFT VISUAL STUDIO\2019\COMMUNITY\VC\TOOLS\MSVC\14.23.28105\INCLUDE\YVALS_CORE.H
C:\PROGRAM FILES (X86)\MICROSOFT VISUAL STUDIO\2019\COMMUNITY\VC\TOOLS\MSVC\14.23.28105\INCLUDE\CRTDEFS.H
C:\PROGRAM FILES (X86)\MICROSOFT VISUAL STUDIO\2019\COMMUNITY\VC\TOOLS\MSVC\14.23.28105\INCLUDE\VCRUNTIME.H
C:\PROGRAM FILES (X86)\MICROSOFT VISUAL STUDIO\2019\COMMUNITY\VC\TOOLS\MSVC\14.23.28105\INCLUDE\SAL.H
C:\PROGRAM FILES (X86)\MICROSOFT VISUAL STUDIO\2019\COMMUNITY\VC\TOOLS\MSVC\14.23.28105\INCLUDE\CONCURRENCYSAL.H
C:\PROGRAM FILES (X86)\MICROSOFT VISUAL STUDIO\2019\COMMUNITY\VC\TOOLS\MSVC\14.23.28105\INCLUDE\VADEFS.H
C:\PROGRAM FILES (X86)\WINDOWS KITS\10\INCLUDE\10.0.18362.0\UCRT\CORECRT.H
C:\PROGRAM FILES (X86)\MICROSOFT VISUAL STUDIO\2019\COMMUNITY\VC\TOOLS\MSVC\14.23.28105\INCLUDE\XKEYCHECK.H
C:\PROGRAM FILES (X86)\MICROSOFT VISUAL STUDIO\2019\COMMUNITY\VC\TOOLS\MSVC\14.23.28105\INCLUDE\ISTREAM
C:\PROGRAM FILES (X86)\MICROSOFT VISUAL STUDIO\2019\COMMUNITY\VC\TOOLS\MSVC\14.23.28105\INCLUDE\OSTREAM
C:\PROGRAM FILES (X86)\MICROSOFT VISUAL STUDIO\2019\COMMUNITY\VC\TOOLS\MSVC\14.23.28105\INCLUDE\IOS
C:\PROGRAM FILES (X86)\MICROSOFT VISUAL STUDIO\2019\COMMUNITY\VC\TOOLS\MSVC\14.23.28105\INCLUDE\XLOCNUM
C:\PROGRAM FILES (X86)\MICROSOFT VISUAL STUDIO\2019\COMMUNITY\VC\TOOLS\MSVC\14.23.28105\INCLUDE\CLIMITS
C:\PROGRAM FILES (X86)\MICROSOFT VISUAL STUDIO\2019\COMMUNITY\VC\TOOLS\MSVC\14.23.28105\INCLUDE\LIMITS.H
C:\PROGRAM FILES (X86)\MICROSOFT VISUAL STUDIO\2019\COMMUNITY\VC\TOOLS\MSVC\14.23.28105\INCLUDE\CMATH
C:\PROGRAM FILES (X86)\MICROSOFT VISUAL STUDIO\2019\COMMUNITY\VC\TOOLS\MSVC\14.23.28105\INCLUDE\YVALS.H
C:\PROGRAM FILES (X86)\WINDOWS KITS\10\INCLUDE\10.0.18362.0\UCRT\CRTDBG.H
C:\PROGRAM FILES (X86)\MICROSOFT VISUAL STUDIO\2019\COMMUNITY\VC\TOOLS\MSVC\14.23.28105\INCLUDE\VCRUNTIME_NEW_DEBUG.H
C:\PROGRAM FILES (X86)\MICROSOFT VISUAL STUDIO\2019\COMMUNITY\VC\TOOLS\MSVC\14.23.28105\INCLUDE\VCRUNTIME_NEW.H
C:\PROGRAM FILES (X86)\MICROSOFT VISUAL STUDIO\2019\COMMUNITY\VC\TOOLS\MSVC\14.23.28105\INCLUDE\USE_ANSI.H
C:\PROGRAM FILES (X86)\MICROSOFT VISUAL STUDIO\2019\COMMUNITY\VC\TOOLS\MSVC\14.23.28105\INCLUDE\CSTDLIB
C:\PROGRAM FILES (X86)\WINDOWS KITS\10\INCLUDE\10.0.18362.0\UCRT\MATH.H
C:\PROGRAM FILES (X86)\WINDOWS KITS\10\INCLUDE\10.0.18362.0\UCRT\CORECRT_MATH.H
C:\PROGRAM FILES (X86)\WINDOWS KITS\10\INCLUDE\10.0.18362.0\UCRT\STDLIB.H
C:\PROGRAM FILES (X86)\WINDOWS KITS\10\INCLUDE\10.0.18362.0\UCRT\CORECRT_MALLOC.H
C:\PROGRAM FILES (X86)\WINDOWS KITS\10\INCLUDE\10.0.18362.0\UCRT\CORECRT_SEARCH.H
C:\PROGRAM FILES (X86)\WINDOWS KITS\10\INCLUDE\10.0.18362.0\UCRT\STDDEF.H
C:\PROGRAM FILES (X86)\WINDOWS KITS\10\INCLUDE\10.0.18362.0\UCRT\CORECRT_WSTDLIB.H
C:\PROGRAM FILES (X86)\MICROSOFT VISUAL STUDIO\2019\COMMUNITY\VC\TOOLS\MSVC\14.23.28105\INCLUDE\XTGMATH.H
C:\PROGRAM FILES (X86)\MICROSOFT VISUAL STUDIO\2019\COMMUNITY\VC\TOOLS\MSVC\14.23.28105\INCLUDE\XTR1COMMON
C:\PROGRAM FILES (X86)\MICROSOFT VISUAL STUDIO\2019\COMMUNITY\VC\TOOLS\MSVC\14.23.28105\INCLUDE\CSTDIO
C:\PROGRAM FILES (X86)\WINDOWS KITS\10\INCLUDE\10.0.18362.0\UCRT\STDIO.H
C:\PROGRAM FILES (X86)\WINDOWS KITS\10\INCLUDE\10.0.18362.0\UCRT\CORECRT_WSTDIO.H
C:\PROGRAM FILES (X86)\WINDOWS KITS\10\INCLUDE\10.0.18362.0\UCRT\CORECRT_STDIO_CONFIG.H
C:\PROGRAM FILES (X86)\MICROSOFT VISUAL STUDIO\2019\COMMUNITY\VC\TOOLS\MSVC\14.23.28105\INCLUDE\STREAMBUF
C:\PROGRAM FILES (X86)\MICROSOFT VISUAL STUDIO\2019\COMMUNITY\VC\TOOLS\MSVC\14.23.28105\INCLUDE\XIOSBASE
C:\PROGRAM FILES (X86)\WINDOWS KITS\10\INCLUDE\10.0.18362.0\UCRT\SHARE.H
C:\PROGRAM FILES (X86)\WINDOWS KITS\10\INCLUDE\10.0.18362.0\UCRT\CORECRT_SHARE.H
C:\PROGRAM FILES (X86)\MICROSOFT VISUAL STUDIO\2019\COMMUNITY\VC\TOOLS\MSVC\14.23.28105\INCLUDE\SYSTEM_ERROR
C:\PROGRAM FILES (X86)\MICROSOFT VISUAL STUDIO\2019\COMMUNITY\VC\TOOLS\MSVC\14.23.28105\INCLUDE\CERRNO
C:\PROGRAM FILES (X86)\WINDOWS KITS\10\INCLUDE\10.0.18362.0\UCRT\ERRNO.H
C:\PROGRAM FILES (X86)\MICROSOFT VISUAL STUDIO\2019\COMMUNITY\VC\TOOLS\MSVC\14.23.28105\INCLUDE\STDEXCEPT
C:\PROGRAM FILES (X86)\MICROSOFT VISUAL STUDIO\2019\COMMUNITY\VC\TOOLS\MSVC\14.23.28105\INCLUDE\EXCEPTION
C:\PROGRAM FILES (X86)\MICROSOFT VISUAL STUDIO\2019\COMMUNITY\VC\TOOLS\MSVC\14.23.28105\INCLUDE\TYPE_TRAITS
C:\PROGRAM FILES (X86)\MICROSOFT VISUAL STUDIO\2019\COMMUNITY\VC\TOOLS\MSVC\14.23.28105\INCLUDE\XSTDDEF
C:\PROGRAM FILES (X86)\MICROSOFT VISUAL STUDIO\2019\COMMUNITY\VC\TOOLS\MSVC\14.23.28105\INCLUDE\CSTDDEF
C:\PROGRAM FILES (X86)\MICROSOFT VISUAL STUDIO\2019\COMMUNITY\VC\TOOLS\MSVC\14.23.28105\INCLUDE\INITIALIZER_LIST
C:\PROGRAM FILES (X86)\WINDOWS KITS\10\INCLUDE\10.0.18362.0\UCRT\MALLOC.H
C:\PROGRAM FILES (X86)\MICROSOFT VISUAL STUDIO\2019\COMMUNITY\VC\TOOLS\MSVC\14.23.28105\INCLUDE\VCRUNTIME_EXCEPTION.H
C:\PROGRAM FILES (X86)\MICROSOFT VISUAL STUDIO\2019\COMMUNITY\VC\TOOLS\MSVC\14.23.28105\INCLUDE\EH.H
C:\PROGRAM FILES (X86)\WINDOWS KITS\10\INCLUDE\10.0.18362.0\UCRT\CORECRT_TERMINATE.H
C:\PROGRAM FILES (X86)\MICROSOFT VISUAL STUDIO\2019\COMMUNITY\VC\TOOLS\MSVC\14.23.28105\INCLUDE\XSTRING
C:\PROGRAM FILES (X86)\MICROSOFT VISUAL STUDIO\2019\COMMUNITY\VC\TOOLS\MSVC\14.23.28105\INCLUDE\IOSFWD
C:\PROGRAM FILES (X86)\MICROSOFT VISUAL STUDIO\2019\COMMUNITY\VC\TOOLS\MSVC\14.23.28105\INCLUDE\CSTRING
C:\PROGRAM FILES (X86)\WINDOWS KITS\10\INCLUDE\10.0.18362.0\UCRT\STRING.H
C:\PROGRAM FILES (X86)\WINDOWS KITS\10\INCLUDE\10.0.18362.0\UCRT\CORECRT_MEMORY.H
C:\PROGRAM FILES (X86)\WINDOWS KITS\10\INCLUDE\10.0.18362.0\UCRT\CORECRT_MEMCPY_S.H
C:\PROGRAM FILES (X86)\MICROSOFT VISUAL STUDIO\2019\COMMUNITY\VC\TOOLS\MSVC\14.23.28105\INCLUDE\VCRUNTIME_STRING.H
C:\PROGRAM FILES (X86)\WINDOWS KITS\10\INCLUDE\10.0.18362.0\UCRT\CORECRT_WSTRING.H
C:\PROGRAM FILES (X86)\MICROSOFT VISUAL STUDIO\2019\COMMUNITY\VC\TOOLS\MSVC\14.23.28105\INCLUDE\CWCHAR
C:\PROGRAM FILES (X86)\WINDOWS KITS\10\INCLUDE\10.0.18362.0\UCRT\WCHAR.H
C:\PROGRAM FILES (X86)\WINDOWS KITS\10\INCLUDE\10.0.18362.0\UCRT\CORECRT_WCONIO.H
C:\PROGRAM FILES (X86)\WINDOWS KITS\10\INCLUDE\10.0.18362.0\UCRT\CORECRT_WCTYPE.H
C:\PROGRAM FILES (X86)\WINDOWS KITS\10\INCLUDE\10.0.18362.0\UCRT\CORECRT_WDIRECT.H
C:\PROGRAM FILES (X86)\WINDOWS KITS\10\INCLUDE\10.0.18362.0\UCRT\CORECRT_WIO.H
C:\PROGRAM FILES (X86)\WINDOWS KITS\10\INCLUDE\10.0.18362.0\UCRT\CORECRT_WPROCESS.H
C:\PROGRAM FILES (X86)\WINDOWS KITS\10\INCLUDE\10.0.18362.0\UCRT\CORECRT_WTIME.H
C:\PROGRAM FILES (X86)\WINDOWS KITS\10\INCLUDE\10.0.18362.0\UCRT\SYS\STAT.H
C:\PROGRAM FILES (X86)\WINDOWS KITS\10\INCLUDE\10.0.18362.0\UCRT\SYS\TYPES.H
C:\PROGRAM FILES (X86)\MICROSOFT VISUAL STUDIO\2019\COMMUNITY\VC\TOOLS\MSVC\14.23.28105\INCLUDE\XMEMORY
C:\PROGRAM FILES (X86)\MICROSOFT VISUAL STUDIO\2019\COMMUNITY\VC\TOOLS\MSVC\14.23.28105\INCLUDE\CSTDINT
C:\PROGRAM FILES (X86)\MICROSOFT VISUAL STUDIO\2019\COMMUNITY\VC\TOOLS\MSVC\14.23.28105\INCLUDE\STDINT.H
C:\PROGRAM FILES (X86)\MICROSOFT VISUAL STUDIO\2019\COMMUNITY\VC\TOOLS\MSVC\14.23.28105\INCLUDE\LIMITS
C:\PROGRAM FILES (X86)\MICROSOFT VISUAL STUDIO\2019\COMMUNITY\VC\TOOLS\MSVC\14.23.28105\INCLUDE\CFLOAT
C:\PROGRAM FILES (X86)\WINDOWS KITS\10\INCLUDE\10.0.18362.0\UCRT\FLOAT.H
C:\PROGRAM FILES (X86)\MICROSOFT VISUAL STUDIO\2019\COMMUNITY\VC\TOOLS\MSVC\14.23.28105\INCLUDE\NEW
C:\PROGRAM FILES (X86)\MICROSOFT VISUAL STUDIO\2019\COMMUNITY\VC\TOOLS\MSVC\14.23.28105\INCLUDE\XATOMIC.H
C:\PROGRAM FILES (X86)\MICROSOFT VISUAL STUDIO\2019\COMMUNITY\VC\TOOLS\MSVC\14.23.28105\INCLUDE\INTRIN0.H
C:\PROGRAM FILES (X86)\MICROSOFT VISUAL STUDIO\2019\COMMUNITY\VC\TOOLS\MSVC\14.23.28105\INCLUDE\XUTILITY
C:\PROGRAM FILES (X86)\MICROSOFT VISUAL STUDIO\2019\COMMUNITY\VC\TOOLS\MSVC\14.23.28105\INCLUDE\UTILITY
C:\PROGRAM FILES (X86)\MICROSOFT VISUAL STUDIO\2019\COMMUNITY\VC\TOOLS\MSVC\14.23.28105\INCLUDE\XCALL_ONCE.H
C:\PROGRAM FILES (X86)\MICROSOFT VISUAL STUDIO\2019\COMMUNITY\VC\TOOLS\MSVC\14.23.28105\INCLUDE\XERRC.H
C:\PROGRAM FILES (X86)\MICROSOFT VISUAL STUDIO\2019\COMMUNITY\VC\TOOLS\MSVC\14.23.28105\INCLUDE\XLOCALE
C:\PROGRAM FILES (X86)\MICROSOFT VISUAL STUDIO\2019\COMMUNITY\VC\TOOLS\MSVC\14.23.28105\INCLUDE\MEMORY
C:\PROGRAM FILES (X86)\MICROSOFT VISUAL STUDIO\2019\COMMUNITY\VC\TOOLS\MSVC\14.23.28105\INCLUDE\TYPEINFO
C:\PROGRAM FILES (X86)\MICROSOFT VISUAL STUDIO\2019\COMMUNITY\VC\TOOLS\MSVC\14.23.28105\INCLUDE\VCRUNTIME_TYPEINFO.H
C:\PROGRAM FILES (X86)\MICROSOFT VISUAL STUDIO\2019\COMMUNITY\VC\TOOLS\MSVC\14.23.28105\INCLUDE\XFACET
C:\PROGRAM FILES (X86)\MICROSOFT VISUAL STUDIO\2019\COMMUNITY\VC\TOOLS\MSVC\14.23.28105\INCLUDE\XLOCINFO
C:\PROGRAM FILES (X86)\MICROSOFT VISUAL STUDIO\2019\COMMUNITY\VC\TOOLS\MSVC\14.23.28105\INCLUDE\XLOCINFO.H
C:\PROGRAM FILES (X86)\WINDOWS KITS\10\INCLUDE\10.0.18362.0\UCRT\CTYPE.H
C:\PROGRAM FILES (X86)\WINDOWS KITS\10\INCLUDE\10.0.18362.0\UCRT\LOCALE.H
F:\PROJECT_REZA\CLOUD\OPENPLANE\LINKEDFILES\GLEW\INCLUDE\GLEW.H
C:\PROGRAM FILES (X86)\WINDOWS KITS\10\INCLUDE\10.0.18362.0\UM\GL\GLU.H
C:\PROGRAM FILES (X86)\WINDOWS KITS\10\INCLUDE\10.0.18362.0\SHARED\WINAPIFAMILY.H
C:\PROGRAM FILES (X86)\WINDOWS KITS\10\INCLUDE\10.0.18362.0\SHARED\WINPACKAGEFAMILY.H
C:\PROGRAM FILES (X86)\WINDOWS KITS\10\INCLUDE\10.0.18362.0\UM\GL\GL.H
F:\PROJECT_REZA\CLOUD\OPENPLANE\LINKEDFILES\GLFW\INCLUDE\GLFW3.H
F:\PROJECT_REZA\CLOUD\OPENPLANE\LINKEDFILES\GLM\INCLUDE\GLM.HPP
F:\PROJECT_REZA\CLOUD\OPENPLANE\LINKEDFILES\GLM\INCLUDE\DETAIL\_FIXES.HPP
F:\PROJECT_REZA\CLOUD\OPENPLANE\LINKEDFILES\GLM\INCLUDE\DETAIL\SETUP.HPP
C:\PROGRAM FILES (X86)\MICROSOFT VISUAL STUDIO\2019\COMMUNITY\VC\TOOLS\MSVC\14.23.28105\INCLUDE\CASSERT
C:\PROGRAM FILES (X86)\WINDOWS KITS\10\INCLUDE\10.0.18362.0\UCRT\ASSERT.H
F:\PROJECT_REZA\CLOUD\OPENPLANE\LINKEDFILES\GLM\INCLUDE\SIMD\PLATFORM.H
F:\PROJECT_REZA\CLOUD\OPENPLANE\LINKEDFILES\GLM\INCLUDE\FWD.HPP
F:\PROJECT_REZA\CLOUD\OPENPLANE\LINKEDFILES\GLM\INCLUDE\DETAIL\QUALIFIER.HPP
F:\PROJECT_REZA\CLOUD\OPENPLANE\LINKEDFILES\GLM\INCLUDE\VEC2.HPP
F:\PROJECT_REZA\CLOUD\OPENPLANE\LINKEDFILES\GLM\INCLUDE\EXT\VECTOR_BOOL2.HPP
F:\PROJECT_REZA\CLOUD\OPENPLANE\LINKEDFILES\GLM\INCLUDE\DETAIL\TYPE_VEC2.HPP
F:\PROJECT_REZA\CLOUD\OPENPLANE\LINKEDFILES\GLM\INCLUDE\DETAIL\TYPE_VEC2.INL
F:\PROJECT_REZA\CLOUD\OPENPLANE\LINKEDFILES\GLM\INCLUDE\DETAIL\COMPUTE_VECTOR_RELATIONAL.HPP
F:\PROJECT_REZA\CLOUD\OPENPLANE\LINKEDFILES\GLM\INCLUDE\EXT\VECTOR_BOOL2_PRECISION.HPP
F:\PROJECT_REZA\CLOUD\OPENPLANE\LINKEDFILES\GLM\INCLUDE\EXT\VECTOR_FLOAT2.HPP
F:\PROJECT_REZA\CLOUD\OPENPLANE\LINKEDFILES\GLM\INCLUDE\EXT\VECTOR_FLOAT2_PRECISION.HPP
F:\PROJECT_REZA\CLOUD\OPENPLANE\LINKEDFILES\GLM\INCLUDE\EXT\VECTOR_DOUBLE2.HPP
F:\PROJECT_REZA\CLOUD\OPENPLANE\LINKEDFILES\GLM\INCLUDE\EXT\VECTOR_DOUBLE2_PRECISION.HPP
F:\PROJECT_REZA\CLOUD\OPENPLANE\LINKEDFILES\GLM\INCLUDE\EXT\VECTOR_INT2.HPP
F:\PROJECT_REZA\CLOUD\OPENPLANE\LINKEDFILES\GLM\INCLUDE\EXT\VECTOR_INT2_PRECISION.HPP
F:\PROJECT_REZA\CLOUD\OPENPLANE\LINKEDFILES\GLM\INCLUDE\EXT\VECTOR_UINT2.HPP
F:\PROJECT_REZA\CLOUD\OPENPLANE\LINKEDFILES\GLM\INCLUDE\EXT\VECTOR_UINT2_PRECISION.HPP
F:\PROJECT_REZA\CLOUD\OPENPLANE\LINKEDFILES\GLM\INCLUDE\VEC3.HPP
F:\PROJECT_REZA\CLOUD\OPENPLANE\LINKEDFILES\GLM\INCLUDE\EXT\VECTOR_BOOL3.HPP
F:\PROJECT_REZA\CLOUD\OPENPLANE\LINKEDFILES\GLM\INCLUDE\DETAIL\TYPE_VEC3.HPP
F:\PROJECT_REZA\CLOUD\OPENPLANE\LINKEDFILES\GLM\INCLUDE\DETAIL\TYPE_VEC3.INL
F:\PROJECT_REZA\CLOUD\OPENPLANE\LINKEDFILES\GLM\INCLUDE\EXT\VECTOR_BOOL3_PRECISION.HPP
F:\PROJECT_REZA\CLOUD\OPENPLANE\LINKEDFILES\GLM\INCLUDE\EXT\VECTOR_FLOAT3.HPP
F:\PROJECT_REZA\CLOUD\OPENPLANE\LINKEDFILES\GLM\INCLUDE\EXT\VECTOR_FLOAT3_PRECISION.HPP
F:\PROJECT_REZA\CLOUD\OPENPLANE\LINKEDFILES\GLM\INCLUDE\EXT\VECTOR_DOUBLE3.HPP
F:\PROJECT_REZA\CLOUD\OPENPLANE\LINKEDFILES\GLM\INCLUDE\EXT\VECTOR_DOUBLE3_PRECISION.HPP
F:\PROJECT_REZA\CLOUD\OPENPLANE\LINKEDFILES\GLM\INCLUDE\EXT\VECTOR_INT3.HPP
F:\PROJECT_REZA\CLOUD\OPENPLANE\LINKEDFILES\GLM\INCLUDE\EXT\VECTOR_INT3_PRECISION.HPP
F:\PROJECT_REZA\CLOUD\OPENPLANE\LINKEDFILES\GLM\INCLUDE\EXT\VECTOR_UINT3.HPP
F:\PROJECT_REZA\CLOUD\OPENPLANE\LINKEDFILES\GLM\INCLUDE\EXT\VECTOR_UINT3_PRECISION.HPP
F:\PROJECT_REZA\CLOUD\OPENPLANE\LINKEDFILES\GLM\INCLUDE\VEC4.HPP
F:\PROJECT_REZA\CLOUD\OPENPLANE\LINKEDFILES\GLM\INCLUDE\EXT\VECTOR_BOOL4.HPP
F:\PROJECT_REZA\CLOUD\OPENPLANE\LINKEDFILES\GLM\INCLUDE\DETAIL\TYPE_VEC4.HPP
F:\PROJECT_REZA\CLOUD\OPENPLANE\LINKEDFILES\GLM\INCLUDE\DETAIL\TYPE_VEC4.INL
F:\PROJECT_REZA\CLOUD\OPENPLANE\LINKEDFILES\GLM\INCLUDE\EXT\VECTOR_BOOL4_PRECISION.HPP
F:\PROJECT_REZA\CLOUD\OPENPLANE\LINKEDFILES\GLM\INCLUDE\EXT\VECTOR_FLOAT4.HPP
F:\PROJECT_REZA\CLOUD\OPENPLANE\LINKEDFILES\GLM\INCLUDE\EXT\VECTOR_FLOAT4_PRECISION.HPP
F:\PROJECT_REZA\CLOUD\OPENPLANE\LINKEDFILES\GLM\INCLUDE\EXT\VECTOR_DOUBLE4.HPP
F:\PROJECT_REZA\CLOUD\OPENPLANE\LINKEDFILES\GLM\INCLUDE\EXT\VECTOR_DOUBLE4_PRECISION.HPP
F:\PROJECT_REZA\CLOUD\OPENPLANE\LINKEDFILES\GLM\INCLUDE\EXT\VECTOR_INT4.HPP
F:\PROJECT_REZA\CLOUD\OPENPLANE\LINKEDFILES\GLM\INCLUDE\EXT\VECTOR_INT4_PRECISION.HPP
F:\PROJECT_REZA\CLOUD\OPENPLANE\LINKEDFILES\GLM\INCLUDE\EXT\VECTOR_UINT4.HPP
F:\PROJECT_REZA\CLOUD\OPENPLANE\LINKEDFILES\GLM\INCLUDE\EXT\VECTOR_UINT4_PRECISION.HPP
F:\PROJECT_REZA\CLOUD\OPENPLANE\LINKEDFILES\GLM\INCLUDE\MAT2X2.HPP
F:\PROJECT_REZA\CLOUD\OPENPLANE\LINKEDFILES\GLM\INCLUDE\EXT\MATRIX_DOUBLE2X2.HPP
F:\PROJECT_REZA\CLOUD\OPENPLANE\LINKEDFILES\GLM\INCLUDE\DETAIL\TYPE_MAT2X2.HPP
F:\PROJECT_REZA\CLOUD\OPENPLANE\LINKEDFILES\GLM\INCLUDE\DETAIL\TYPE_MAT2X2.INL
F:\PROJECT_REZA\CLOUD\OPENPLANE\LINKEDFILES\GLM\INCLUDE\MATRIX.HPP
F:\PROJECT_REZA\CLOUD\OPENPLANE\LINKEDFILES\GLM\INCLUDE\MAT2X3.HPP
F:\PROJECT_REZA\CLOUD\OPENPLANE\LINKEDFILES\GLM\INCLUDE\EXT\MATRIX_DOUBLE2X3.HPP
F:\PROJECT_REZA\CLOUD\OPENPLANE\LINKEDFILES\GLM\INCLUDE\DETAIL\TYPE_MAT2X3.HPP
F:\PROJECT_REZA\CLOUD\OPENPLANE\LINKEDFILES\GLM\INCLUDE\DETAIL\TYPE_MAT2X3.INL
F:\PROJECT_REZA\CLOUD\OPENPLANE\LINKEDFILES\GLM\INCLUDE\EXT\MATRIX_DOUBLE2X3_PRECISION.HPP
F:\PROJECT_REZA\CLOUD\OPENPLANE\LINKEDFILES\GLM\INCLUDE\EXT\MATRIX_FLOAT2X3.HPP
F:\PROJECT_REZA\CLOUD\OPENPLANE\LINKEDFILES\GLM\INCLUDE\EXT\MATRIX_FLOAT2X3_PRECISION.HPP
F:\PROJECT_REZA\CLOUD\OPENPLANE\LINKEDFILES\GLM\INCLUDE\MAT2X4.HPP
F:\PROJECT_REZA\CLOUD\OPENPLANE\LINKEDFILES\GLM\INCLUDE\EXT\MATRIX_DOUBLE2X4.HPP
F:\PROJECT_REZA\CLOUD\OPENPLANE\LINKEDFILES\GLM\INCLUDE\DETAIL\TYPE_MAT2X4.HPP
F:\PROJECT_REZA\CLOUD\OPENPLANE\LINKEDFILES\GLM\INCLUDE\DETAIL\TYPE_MAT2X4.INL
F:\PROJECT_REZA\CLOUD\OPENPLANE\LINKEDFILES\GLM\INCLUDE\EXT\MATRIX_DOUBLE2X4_PRECISION.HPP
F:\PROJECT_REZA\CLOUD\OPENPLANE\LINKEDFILES\GLM\INCLUDE\EXT\MATRIX_FLOAT2X4.HPP
F:\PROJECT_REZA\CLOUD\OPENPLANE\LINKEDFILES\GLM\INCLUDE\EXT\MATRIX_FLOAT2X4_PRECISION.HPP
F:\PROJECT_REZA\CLOUD\OPENPLANE\LINKEDFILES\GLM\INCLUDE\MAT3X2.HPP
F:\PROJECT_REZA\CLOUD\OPENPLANE\LINKEDFILES\GLM\INCLUDE\EXT\MATRIX_DOUBLE3X2.HPP
F:\PROJECT_REZA\CLOUD\OPENPLANE\LINKEDFILES\GLM\INCLUDE\DETAIL\TYPE_MAT3X2.HPP
F:\PROJECT_REZA\CLOUD\OPENPLANE\LINKEDFILES\GLM\INCLUDE\DETAIL\TYPE_MAT3X2.INL
F:\PROJECT_REZA\CLOUD\OPENPLANE\LINKEDFILES\GLM\INCLUDE\EXT\MATRIX_DOUBLE3X2_PRECISION.HPP
F:\PROJECT_REZA\CLOUD\OPENPLANE\LINKEDFILES\GLM\INCLUDE\EXT\MATRIX_FLOAT3X2.HPP
F:\PROJECT_REZA\CLOUD\OPENPLANE\LINKEDFILES\GLM\INCLUDE\EXT\MATRIX_FLOAT3X2_PRECISION.HPP
F:\PROJECT_REZA\CLOUD\OPENPLANE\LINKEDFILES\GLM\INCLUDE\MAT3X3.HPP
F:\PROJECT_REZA\CLOUD\OPENPLANE\LINKEDFILES\GLM\INCLUDE\EXT\MATRIX_DOUBLE3X3.HPP
F:\PROJECT_REZA\CLOUD\OPENPLANE\LINKEDFILES\GLM\INCLUDE\DETAIL\TYPE_MAT3X3.HPP
F:\PROJECT_REZA\CLOUD\OPENPLANE\LINKEDFILES\GLM\INCLUDE\DETAIL\TYPE_MAT3X3.INL
F:\PROJECT_REZA\CLOUD\OPENPLANE\LINKEDFILES\GLM\INCLUDE\EXT\MATRIX_DOUBLE3X3_PRECISION.HPP
F:\PROJECT_REZA\CLOUD\OPENPLANE\LINKEDFILES\GLM\INCLUDE\EXT\MATRIX_FLOAT3X3.HPP
F:\PROJECT_REZA\CLOUD\OPENPLANE\LINKEDFILES\GLM\INCLUDE\EXT\MATRIX_FLOAT3X3_PRECISION.HPP
F:\PROJECT_REZA\CLOUD\OPENPLANE\LINKEDFILES\GLM\INCLUDE\MAT3X4.HPP
F:\PROJECT_REZA\CLOUD\OPENPLANE\LINKEDFILES\GLM\INCLUDE\EXT\MATRIX_DOUBLE3X4.HPP
F:\PROJECT_REZA\CLOUD\OPENPLANE\LINKEDFILES\GLM\INCLUDE\DETAIL\TYPE_MAT3X4.HPP
F:\PROJECT_REZA\CLOUD\OPENPLANE\LINKEDFILES\GLM\INCLUDE\DETAIL\TYPE_MAT3X4.INL
F:\PROJECT_REZA\CLOUD\OPENPLANE\LINKEDFILES\GLM\INCLUDE\EXT\MATRIX_DOUBLE3X4_PRECISION.HPP
F:\PROJECT_REZA\CLOUD\OPENPLANE\LINKEDFILES\GLM\INCLUDE\EXT\MATRIX_FLOAT3X4.HPP
F:\PROJECT_REZA\CLOUD\OPENPLANE\LINKEDFILES\GLM\INCLUDE\EXT\MATRIX_FLOAT3X4_PRECISION.HPP
F:\PROJECT_REZA\CLOUD\OPENPLANE\LINKEDFILES\GLM\INCLUDE\MAT4X2.HPP
F:\PROJECT_REZA\CLOUD\OPENPLANE\LINKEDFILES\GLM\INCLUDE\EXT\MATRIX_DOUBLE4X2.HPP
F:\PROJECT_REZA\CLOUD\OPENPLANE\LINKEDFILES\GLM\INCLUDE\DETAIL\TYPE_MAT4X2.HPP
F:\PROJECT_REZA\CLOUD\OPENPLANE\LINKEDFILES\GLM\INCLUDE\DETAIL\TYPE_MAT4X2.INL
F:\PROJECT_REZA\CLOUD\OPENPLANE\LINKEDFILES\GLM\INCLUDE\EXT\MATRIX_DOUBLE4X2_PRECISION.HPP
F:\PROJECT_REZA\CLOUD\OPENPLANE\LINKEDFILES\GLM\INCLUDE\EXT\MATRIX_FLOAT4X2.HPP
F:\PROJECT_REZA\CLOUD\OPENPLANE\LINKEDFILES\GLM\INCLUDE\EXT\MATRIX_FLOAT4X2_PRECISION.HPP
F:\PROJECT_REZA\CLOUD\OPENPLANE\LINKEDFILES\GLM\INCLUDE\MAT4X3.HPP
F:\PROJECT_REZA\CLOUD\OPENPLANE\LINKEDFILES\GLM\INCLUDE\EXT\MATRIX_DOUBLE4X3.HPP
F:\PROJECT_REZA\CLOUD\OPENPLANE\LINKEDFILES\GLM\INCLUDE\DETAIL\TYPE_MAT4X3.HPP
F:\PROJECT_REZA\CLOUD\OPENPLANE\LINKEDFILES\GLM\INCLUDE\DETAIL\TYPE_MAT4X3.INL
F:\PROJECT_REZA\CLOUD\OPENPLANE\LINKEDFILES\GLM\INCLUDE\EXT\MATRIX_DOUBLE4X3_PRECISION.HPP
F:\PROJECT_REZA\CLOUD\OPENPLANE\LINKEDFILES\GLM\INCLUDE\EXT\MATRIX_FLOAT4X3.HPP
F:\PROJECT_REZA\CLOUD\OPENPLANE\LINKEDFILES\GLM\INCLUDE\EXT\MATRIX_FLOAT4X3_PRECISION.HPP
F:\PROJECT_REZA\CLOUD\OPENPLANE\LINKEDFILES\GLM\INCLUDE\MAT4X4.HPP
F:\PROJECT_REZA\CLOUD\OPENPLANE\LINKEDFILES\GLM\INCLUDE\EXT\MATRIX_DOUBLE4X4.HPP
F:\PROJECT_REZA\CLOUD\OPENPLANE\LINKEDFILES\GLM\INCLUDE\DETAIL\TYPE_MAT4X4.HPP
F:\PROJECT_REZA\CLOUD\OPENPLANE\LINKEDFILES\GLM\INCLUDE\DETAIL\TYPE_MAT4X4.INL
F:\PROJECT_REZA\CLOUD\OPENPLANE\LINKEDFILES\GLM\INCLUDE\EXT\MATRIX_DOUBLE4X4_PRECISION.HPP
F:\PROJECT_REZA\CLOUD\OPENPLANE\LINKEDFILES\GLM\INCLUDE\EXT\MATRIX_FLOAT4X4.HPP
F:\PROJECT_REZA\CLOUD\OPENPLANE\LINKEDFILES\GLM\INCLUDE\EXT\MATRIX_FLOAT4X4_PRECISION.HPP
F:\PROJECT_REZA\CLOUD\OPENPLANE\LINKEDFILES\GLM\INCLUDE\DETAIL\FUNC_MATRIX.INL
F:\PROJECT_REZA\CLOUD\OPENPLANE\LINKEDFILES\GLM\INCLUDE\GEOMETRIC.HPP
F:\PROJECT_REZA\CLOUD\OPENPLANE\LINKEDFILES\GLM\INCLUDE\DETAIL\FUNC_GEOMETRIC.INL
F:\PROJECT_REZA\CLOUD\OPENPLANE\LINKEDFILES\GLM\INCLUDE\EXPONENTIAL.HPP
F:\PROJECT_REZA\CLOUD\OPENPLANE\LINKEDFILES\GLM\INCLUDE\DETAIL\TYPE_VEC1.HPP
F:\PROJECT_REZA\CLOUD\OPENPLANE\LINKEDFILES\GLM\INCLUDE\DETAIL\TYPE_VEC1.INL
F:\PROJECT_REZA\CLOUD\OPENPLANE\LINKEDFILES\GLM\INCLUDE\DETAIL\FUNC_EXPONENTIAL.INL
F:\PROJECT_REZA\CLOUD\OPENPLANE\LINKEDFILES\GLM\INCLUDE\VECTOR_RELATIONAL.HPP
F:\PROJECT_REZA\CLOUD\OPENPLANE\LINKEDFILES\GLM\INCLUDE\DETAIL\FUNC_VECTOR_RELATIONAL.INL
F:\PROJECT_REZA\CLOUD\OPENPLANE\LINKEDFILES\GLM\INCLUDE\DETAIL\_VECTORIZE.HPP
F:\PROJECT_REZA\CLOUD\OPENPLANE\LINKEDFILES\GLM\INCLUDE\COMMON.HPP
F:\PROJECT_REZA\CLOUD\OPENPLANE\LINKEDFILES\GLM\INCLUDE\DETAIL\FUNC_COMMON.INL
F:\PROJECT_REZA\CLOUD\OPENPLANE\LINKEDFILES\GLM\INCLUDE\DETAIL\COMPUTE_COMMON.HPP
F:\PROJECT_REZA\CLOUD\OPENPLANE\LINKEDFILES\GLM\INCLUDE\EXT\MATRIX_DOUBLE2X2_PRECISION.HPP
F:\PROJECT_REZA\CLOUD\OPENPLANE\LINKEDFILES\GLM\INCLUDE\EXT\MATRIX_FLOAT2X2.HPP
F:\PROJECT_REZA\CLOUD\OPENPLANE\LINKEDFILES\GLM\INCLUDE\EXT\MATRIX_FLOAT2X2_PRECISION.HPP
F:\PROJECT_REZA\CLOUD\OPENPLANE\LINKEDFILES\GLM\INCLUDE\TRIGONOMETRIC.HPP
F:\PROJECT_REZA\CLOUD\OPENPLANE\LINKEDFILES\GLM\INCLUDE\DETAIL\FUNC_TRIGONOMETRIC.INL
F:\PROJECT_REZA\CLOUD\OPENPLANE\LINKEDFILES\GLM\INCLUDE\PACKING.HPP
F:\PROJECT_REZA\CLOUD\OPENPLANE\LINKEDFILES\GLM\INCLUDE\DETAIL\FUNC_PACKING.INL
F:\PROJECT_REZA\CLOUD\OPENPLANE\LINKEDFILES\GLM\INCLUDE\DETAIL\TYPE_HALF.HPP
F:\PROJECT_REZA\CLOUD\OPENPLANE\LINKEDFILES\GLM\INCLUDE\DETAIL\TYPE_HALF.INL
F:\PROJECT_REZA\CLOUD\OPENPLANE\LINKEDFILES\GLM\INCLUDE\INTEGER.HPP
F:\PROJECT_REZA\CLOUD\OPENPLANE\LINKEDFILES\GLM\INCLUDE\DETAIL\FUNC_INTEGER.INL
C:\PROGRAM FILES (X86)\MICROSOFT VISUAL STUDIO\2019\COMMUNITY\VC\TOOLS\MSVC\14.23.28105\INCLUDE\INTRIN.H
C:\PROGRAM FILES (X86)\MICROSOFT VISUAL STUDIO\2019\COMMUNITY\VC\TOOLS\MSVC\14.23.28105\INCLUDE\SETJMP.H
C:\PROGRAM FILES (X86)\MICROSOFT VISUAL STUDIO\2019\COMMUNITY\VC\TOOLS\MSVC\14.23.28105\INCLUDE\IMMINTRIN.H
C:\PROGRAM FILES (X86)\MICROSOFT VISUAL STUDIO\2019\COMMUNITY\VC\TOOLS\MSVC\14.23.28105\INCLUDE\WMMINTRIN.H
C:\PROGRAM FILES (X86)\MICROSOFT VISUAL STUDIO\2019\COMMUNITY\VC\TOOLS\MSVC\14.23.28105\INCLUDE\NMMINTRIN.H
C:\PROGRAM FILES (X86)\MICROSOFT VISUAL STUDIO\2019\COMMUNITY\VC\TOOLS\MSVC\14.23.28105\INCLUDE\SMMINTRIN.H
C:\PROGRAM FILES (X86)\MICROSOFT VISUAL STUDIO\2019\COMMUNITY\VC\TOOLS\MSVC\14.23.28105\INCLUDE\TMMINTRIN.H
C:\PROGRAM FILES (X86)\MICROSOFT VISUAL STUDIO\2019\COMMUNITY\VC\TOOLS\MSVC\14.23.28105\INCLUDE\PMMINTRIN.H
C:\PROGRAM FILES (X86)\MICROSOFT VISUAL STUDIO\2019\COMMUNITY\VC\TOOLS\MSVC\14.23.28105\INCLUDE\EMMINTRIN.H
C:\PROGRAM FILES (X86)\MICROSOFT VISUAL STUDIO\2019\COMMUNITY\VC\TOOLS\MSVC\14.23.28105\INCLUDE\XMMINTRIN.H
C:\PROGRAM FILES (X86)\MICROSOFT VISUAL STUDIO\2019\COMMUNITY\VC\TOOLS\MSVC\14.23.28105\INCLUDE\MMINTRIN.H
C:\PROGRAM FILES (X86)\MICROSOFT VISUAL STUDIO\2019\COMMUNITY\VC\TOOLS\MSVC\14.23.28105\INCLUDE\ZMMINTRIN.H
C:\PROGRAM FILES (X86)\MICROSOFT VISUAL STUDIO\2019\COMMUNITY\VC\TOOLS\MSVC\14.23.28105\INCLUDE\AMMINTRIN.H
C:\PROGRAM FILES (X86)\MICROSOFT VISUAL STUDIO\2019\COMMUNITY\VC\TOOLS\MSVC\14.23.28105\INCLUDE\MM3DNOW.H
F:\PROJECT_REZA\CLOUD\OPENPLANE\LINKEDFILES\GLM\INCLUDE\GTC\MATRIX_TRANSFORM.HPP
F:\PROJECT_REZA\CLOUD\OPENPLANE\LINKEDFILES\GLM\INCLUDE\EXT\MATRIX_PROJECTION.HPP
F:\PROJECT_REZA\CLOUD\OPENPLANE\LINKEDFILES\GLM\INCLUDE\GTC\CONSTANTS.HPP
F:\PROJECT_REZA\CLOUD\OPENPLANE\LINKEDFILES\GLM\INCLUDE\EXT\SCALAR_CONSTANTS.HPP
F:\PROJECT_REZA\CLOUD\OPENPLANE\LINKEDFILES\GLM\INCLUDE\EXT\SCALAR_CONSTANTS.INL
F:\PROJECT_REZA\CLOUD\OPENPLANE\LINKEDFILES\GLM\INCLUDE\GTC\CONSTANTS.INL
F:\PROJECT_REZA\CLOUD\OPENPLANE\LINKEDFILES\GLM\INCLUDE\EXT\MATRIX_PROJECTION.INL
F:\PROJECT_REZA\CLOUD\OPENPLANE\LINKEDFILES\GLM\INCLUDE\EXT\MATRIX_CLIP_SPACE.HPP
F:\PROJECT_REZA\CLOUD\OPENPLANE\LINKEDFILES\GLM\INCLUDE\EXT\MATRIX_CLIP_SPACE.INL
F:\PROJECT_REZA\CLOUD\OPENPLANE\LINKEDFILES\GLM\INCLUDE\EXT\MATRIX_TRANSFORM.HPP
F:\PROJECT_REZA\CLOUD\OPENPLANE\LINKEDFILES\GLM\INCLUDE\EXT\MATRIX_TRANSFORM.INL
F:\PROJECT_REZA\CLOUD\OPENPLANE\LINKEDFILES\GLM\INCLUDE\GTC\MATRIX_TRANSFORM.INL
F:\PROJECT_REZA\CLOUD\OPENPLANE\LINKEDFILES\GLM\INCLUDE\GTC\TYPE_PTR.HPP
F:\PROJECT_REZA\CLOUD\OPENPLANE\LINKEDFILES\GLM\INCLUDE\GTC\QUATERNION.HPP
F:\PROJECT_REZA\CLOUD\OPENPLANE\LINKEDFILES\GLM\INCLUDE\EXT\VECTOR_RELATIONAL.HPP
F:\PROJECT_REZA\CLOUD\OPENPLANE\LINKEDFILES\GLM\INCLUDE\EXT\VECTOR_RELATIONAL.INL
F:\PROJECT_REZA\CLOUD\OPENPLANE\LINKEDFILES\GLM\INCLUDE\DETAIL\TYPE_FLOAT.HPP
F:\PROJECT_REZA\CLOUD\OPENPLANE\LINKEDFILES\GLM\INCLUDE\EXT\QUATERNION_COMMON.HPP
F:\PROJECT_REZA\CLOUD\OPENPLANE\LINKEDFILES\GLM\INCLUDE\EXT\QUATERNION_GEOMETRIC.HPP
F:\PROJECT_REZA\CLOUD\OPENPLANE\LINKEDFILES\GLM\INCLUDE\EXT\QUATERNION_GEOMETRIC.INL
F:\PROJECT_REZA\CLOUD\OPENPLANE\LINKEDFILES\GLM\INCLUDE\EXT\QUATERNION_COMMON.INL
F:\PROJECT_REZA\CLOUD\OPENPLANE\LINKEDFILES\GLM\INCLUDE\EXT\QUATERNION_FLOAT.HPP
F:\PROJECT_REZA\CLOUD\OPENPLANE\LINKEDFILES\GLM\INCLUDE\DETAIL\TYPE_QUAT.HPP
F:\PROJECT_REZA\CLOUD\OPENPLANE\LINKEDFILES\GLM\INCLUDE\EXT\QUATERNION_RELATIONAL.HPP
F:\PROJECT_REZA\CLOUD\OPENPLANE\LINKEDFILES\GLM\INCLUDE\EXT\QUATERNION_RELATIONAL.INL
F:\PROJECT_REZA\CLOUD\OPENPLANE\LINKEDFILES\GLM\INCLUDE\DETAIL\TYPE_QUAT.INL
F:\PROJECT_REZA\CLOUD\OPENPLANE\LINKEDFILES\GLM\INCLUDE\EXT\QUATERNION_FLOAT_PRECISION.HPP
F:\PROJECT_REZA\CLOUD\OPENPLANE\LINKEDFILES\GLM\INCLUDE\EXT\QUATERNION_DOUBLE.HPP
F:\PROJECT_REZA\CLOUD\OPENPLANE\LINKEDFILES\GLM\INCLUDE\EXT\QUATERNION_DOUBLE_PRECISION.HPP
F:\PROJECT_REZA\CLOUD\OPENPLANE\LINKEDFILES\GLM\INCLUDE\EXT\QUATERNION_TRIGONOMETRIC.HPP
F:\PROJECT_REZA\CLOUD\OPENPLANE\LINKEDFILES\GLM\INCLUDE\EXT\QUATERNION_TRIGONOMETRIC.INL
F:\PROJECT_REZA\CLOUD\OPENPLANE\LINKEDFILES\GLM\INCLUDE\EXT\QUATERNION_TRANSFORM.HPP
F:\PROJECT_REZA\CLOUD\OPENPLANE\LINKEDFILES\GLM\INCLUDE\EXT\QUATERNION_TRANSFORM.INL
F:\PROJECT_REZA\CLOUD\OPENPLANE\LINKEDFILES\GLM\INCLUDE\GTC\QUATERNION.INL
F:\PROJECT_REZA\CLOUD\OPENPLANE\LINKEDFILES\GLM\INCLUDE\GTC\EPSILON.HPP
F:\PROJECT_REZA\CLOUD\OPENPLANE\LINKEDFILES\GLM\INCLUDE\GTC\EPSILON.INL
F:\PROJECT_REZA\CLOUD\OPENPLANE\LINKEDFILES\GLM\INCLUDE\GTC\VEC1.HPP
F:\PROJECT_REZA\CLOUD\OPENPLANE\LINKEDFILES\GLM\INCLUDE\EXT\VECTOR_BOOL1.HPP
F:\PROJECT_REZA\CLOUD\OPENPLANE\LINKEDFILES\GLM\INCLUDE\EXT\VECTOR_BOOL1_PRECISION.HPP
F:\PROJECT_REZA\CLOUD\OPENPLANE\LINKEDFILES\GLM\INCLUDE\EXT\VECTOR_FLOAT1.HPP
F:\PROJECT_REZA\CLOUD\OPENPLANE\LINKEDFILES\GLM\INCLUDE\EXT\VECTOR_FLOAT1_PRECISION.HPP
F:\PROJECT_REZA\CLOUD\OPENPLANE\LINKEDFILES\GLM\INCLUDE\EXT\VECTOR_DOUBLE1.HPP
F:\PROJECT_REZA\CLOUD\OPENPLANE\LINKEDFILES\GLM\INCLUDE\EXT\VECTOR_DOUBLE1_PRECISION.HPP
F:\PROJECT_REZA\CLOUD\OPENPLANE\LINKEDFILES\GLM\INCLUDE\EXT\VECTOR_INT1.HPP
F:\PROJECT_REZA\CLOUD\OPENPLANE\LINKEDFILES\GLM\INCLUDE\EXT\VECTOR_INT1_PRECISION.HPP
F:\PROJECT_REZA\CLOUD\OPENPLANE\LINKEDFILES\GLM\INCLUDE\EXT\VECTOR_UINT1.HPP
F:\PROJECT_REZA\CLOUD\OPENPLANE\LINKEDFILES\GLM\INCLUDE\EXT\VECTOR_UINT1_PRECISION.HPP
F:\PROJECT_REZA\CLOUD\OPENPLANE\LINKEDFILES\GLM\INCLUDE\GTC\TYPE_PTR.INL
F:\PROJECT_REZA\CLOUD\OPENPLANE\LINKEDFILES\SOIL2\INCLUDE\SOIL2.H
^F:\PROJECT_REZA\CLOUD\OPENPLANE\OPENPLANE.CPP
C:\PROGRAM FILES (X86)\MICROSOFT VISUAL STUDIO\2019\COMMUNITY\VC\TOOLS\MSVC\14.23.28105\BIN\HOSTX86\X86\1033\CLUI.DLL
C:\WINDOWS\GLOBALIZATION\SORTING\SORTDEFAULT.NLS
C:\WINDOWS\SYSTEM32\TZRES.DLL
F:\PROJECT_REZA\CLOUD\OPENPLANE\LIBRARYLIST.H
C:\PROGRAM FILES (X86)\MICROSOFT VISUAL STUDIO\2019\COMMUNITY\VC\TOOLS\MSVC\14.23.28105\INCLUDE\IOSTREAM
C:\PROGRAM FILES (X86)\MICROSOFT VISUAL STUDIO\2019\COMMUNITY\VC\TOOLS\MSVC\14.23.28105\INCLUDE\YVALS_CORE.H
C:\PROGRAM FILES (X86)\MICROSOFT VISUAL STUDIO\2019\COMMUNITY\VC\TOOLS\MSVC\14.23.28105\INCLUDE\CRTDEFS.H
C:\PROGRAM FILES (X86)\MICROSOFT VISUAL STUDIO\2019\COMMUNITY\VC\TOOLS\MSVC\14.23.28105\INCLUDE\VCRUNTIME.H
C:\PROGRAM FILES (X86)\MICROSOFT VISUAL STUDIO\2019\COMMUNITY\VC\TOOLS\MSVC\14.23.28105\INCLUDE\SAL.H
C:\PROGRAM FILES (X86)\MICROSOFT VISUAL STUDIO\2019\COMMUNITY\VC\TOOLS\MSVC\14.23.28105\INCLUDE\CONCURRENCYSAL.H
C:\PROGRAM FILES (X86)\MICROSOFT VISUAL STUDIO\2019\COMMUNITY\VC\TOOLS\MSVC\14.23.28105\INCLUDE\VADEFS.H
C:\PROGRAM FILES (X86)\WINDOWS KITS\10\INCLUDE\10.0.18362.0\UCRT\CORECRT.H
C:\PROGRAM FILES (X86)\MICROSOFT VISUAL STUDIO\2019\COMMUNITY\VC\TOOLS\MSVC\14.23.28105\INCLUDE\XKEYCHECK.H
C:\PROGRAM FILES (X86)\MICROSOFT VISUAL STUDIO\2019\COMMUNITY\VC\TOOLS\MSVC\14.23.28105\INCLUDE\ISTREAM
C:\PROGRAM FILES (X86)\MICROSOFT VISUAL STUDIO\2019\COMMUNITY\VC\TOOLS\MSVC\14.23.28105\INCLUDE\OSTREAM
C:\PROGRAM FILES (X86)\MICROSOFT VISUAL STUDIO\2019\COMMUNITY\VC\TOOLS\MSVC\14.23.28105\INCLUDE\IOS
C:\PROGRAM FILES (X86)\MICROSOFT VISUAL STUDIO\2019\COMMUNITY\VC\TOOLS\MSVC\14.23.28105\INCLUDE\XLOCNUM
C:\PROGRAM FILES (X86)\MICROSOFT VISUAL STUDIO\2019\COMMUNITY\VC\TOOLS\MSVC\14.23.28105\INCLUDE\CLIMITS
C:\PROGRAM FILES (X86)\MICROSOFT VISUAL STUDIO\2019\COMMUNITY\VC\TOOLS\MSVC\14.23.28105\INCLUDE\LIMITS.H
C:\PROGRAM FILES (X86)\MICROSOFT VISUAL STUDIO\2019\COMMUNITY\VC\TOOLS\MSVC\14.23.28105\INCLUDE\CMATH
C:\PROGRAM FILES (X86)\MICROSOFT VISUAL STUDIO\2019\COMMUNITY\VC\TOOLS\MSVC\14.23.28105\INCLUDE\YVALS.H
C:\PROGRAM FILES (X86)\WINDOWS KITS\10\INCLUDE\10.0.18362.0\UCRT\CRTDBG.H
C:\PROGRAM FILES (X86)\MICROSOFT VISUAL STUDIO\2019\COMMUNITY\VC\TOOLS\MSVC\14.23.28105\INCLUDE\VCRUNTIME_NEW_DEBUG.H
C:\PROGRAM FILES (X86)\MICROSOFT VISUAL STUDIO\2019\COMMUNITY\VC\TOOLS\MSVC\14.23.28105\INCLUDE\VCRUNTIME_NEW.H
C:\PROGRAM FILES (X86)\MICROSOFT VISUAL STUDIO\2019\COMMUNITY\VC\TOOLS\MSVC\14.23.28105\INCLUDE\USE_ANSI.H
C:\PROGRAM FILES (X86)\MICROSOFT VISUAL STUDIO\2019\COMMUNITY\VC\TOOLS\MSVC\14.23.28105\INCLUDE\CSTDLIB
C:\PROGRAM FILES (X86)\WINDOWS KITS\10\INCLUDE\10.0.18362.0\UCRT\MATH.H
C:\PROGRAM FILES (X86)\WINDOWS KITS\10\INCLUDE\10.0.18362.0\UCRT\CORECRT_MATH.H
C:\PROGRAM FILES (X86)\WINDOWS KITS\10\INCLUDE\10.0.18362.0\UCRT\STDLIB.H
C:\PROGRAM FILES (X86)\WINDOWS KITS\10\INCLUDE\10.0.18362.0\UCRT\CORECRT_MALLOC.H
C:\PROGRAM FILES (X86)\WINDOWS KITS\10\INCLUDE\10.0.18362.0\UCRT\CORECRT_SEARCH.H
C:\PROGRAM FILES (X86)\WINDOWS KITS\10\INCLUDE\10.0.18362.0\UCRT\STDDEF.H
C:\PROGRAM FILES (X86)\WINDOWS KITS\10\INCLUDE\10.0.18362.0\UCRT\CORECRT_WSTDLIB.H
C:\PROGRAM FILES (X86)\MICROSOFT VISUAL STUDIO\2019\COMMUNITY\VC\TOOLS\MSVC\14.23.28105\INCLUDE\XTGMATH.H
C:\PROGRAM FILES (X86)\MICROSOFT VISUAL STUDIO\2019\COMMUNITY\VC\TOOLS\MSVC\14.23.28105\INCLUDE\XTR1COMMON
C:\PROGRAM FILES (X86)\MICROSOFT VISUAL STUDIO\2019\COMMUNITY\VC\TOOLS\MSVC\14.23.28105\INCLUDE\CSTDIO
C:\PROGRAM FILES (X86)\WINDOWS KITS\10\INCLUDE\10.0.18362.0\UCRT\STDIO.H
C:\PROGRAM FILES (X86)\WINDOWS KITS\10\INCLUDE\10.0.18362.0\UCRT\CORECRT_WSTDIO.H
C:\PROGRAM FILES (X86)\WINDOWS KITS\10\INCLUDE\10.0.18362.0\UCRT\CORECRT_STDIO_CONFIG.H
C:\PROGRAM FILES (X86)\MICROSOFT VISUAL STUDIO\2019\COMMUNITY\VC\TOOLS\MSVC\14.23.28105\INCLUDE\STREAMBUF
C:\PROGRAM FILES (X86)\MICROSOFT VISUAL STUDIO\2019\COMMUNITY\VC\TOOLS\MSVC\14.23.28105\INCLUDE\XIOSBASE
C:\PROGRAM FILES (X86)\WINDOWS KITS\10\INCLUDE\10.0.18362.0\UCRT\SHARE.H
C:\PROGRAM FILES (X86)\WINDOWS KITS\10\INCLUDE\10.0.18362.0\UCRT\CORECRT_SHARE.H
C:\PROGRAM FILES (X86)\MICROSOFT VISUAL STUDIO\2019\COMMUNITY\VC\TOOLS\MSVC\14.23.28105\INCLUDE\SYSTEM_ERROR
C:\PROGRAM FILES (X86)\MICROSOFT VISUAL STUDIO\2019\COMMUNITY\VC\TOOLS\MSVC\14.23.28105\INCLUDE\CERRNO
C:\PROGRAM FILES (X86)\WINDOWS KITS\10\INCLUDE\10.0.18362.0\UCRT\ERRNO.H
C:\PROGRAM FILES (X86)\MICROSOFT VISUAL STUDIO\2019\COMMUNITY\VC\TOOLS\MSVC\14.23.28105\INCLUDE\STDEXCEPT
C:\PROGRAM FILES (X86)\MICROSOFT VISUAL STUDIO\2019\COMMUNITY\VC\TOOLS\MSVC\14.23.28105\INCLUDE\EXCEPTION
C:\PROGRAM FILES (X86)\MICROSOFT VISUAL STUDIO\2019\COMMUNITY\VC\TOOLS\MSVC\14.23.28105\INCLUDE\TYPE_TRAITS
C:\PROGRAM FILES (X86)\MICROSOFT VISUAL STUDIO\2019\COMMUNITY\VC\TOOLS\MSVC\14.23.28105\INCLUDE\XSTDDEF
C:\PROGRAM FILES (X86)\MICROSOFT VISUAL STUDIO\2019\COMMUNITY\VC\TOOLS\MSVC\14.23.28105\INCLUDE\CSTDDEF
C:\PROGRAM FILES (X86)\MICROSOFT VISUAL STUDIO\2019\COMMUNITY\VC\TOOLS\MSVC\14.23.28105\INCLUDE\INITIALIZER_LIST
C:\PROGRAM FILES (X86)\WINDOWS KITS\10\INCLUDE\10.0.18362.0\UCRT\MALLOC.H
C:\PROGRAM FILES (X86)\MICROSOFT VISUAL STUDIO\2019\COMMUNITY\VC\TOOLS\MSVC\14.23.28105\INCLUDE\VCRUNTIME_EXCEPTION.H
C:\PROGRAM FILES (X86)\MICROSOFT VISUAL STUDIO\2019\COMMUNITY\VC\TOOLS\MSVC\14.23.28105\INCLUDE\EH.H
C:\PROGRAM FILES (X86)\WINDOWS KITS\10\INCLUDE\10.0.18362.0\UCRT\CORECRT_TERMINATE.H
C:\PROGRAM FILES (X86)\MICROSOFT VISUAL STUDIO\2019\COMMUNITY\VC\TOOLS\MSVC\14.23.28105\INCLUDE\XSTRING
C:\PROGRAM FILES (X86)\MICROSOFT VISUAL STUDIO\2019\COMMUNITY\VC\TOOLS\MSVC\14.23.28105\INCLUDE\IOSFWD
C:\PROGRAM FILES (X86)\MICROSOFT VISUAL STUDIO\2019\COMMUNITY\VC\TOOLS\MSVC\14.23.28105\INCLUDE\CSTRING
C:\PROGRAM FILES (X86)\WINDOWS KITS\10\INCLUDE\10.0.18362.0\UCRT\STRING.H
C:\PROGRAM FILES (X86)\WINDOWS KITS\10\INCLUDE\10.0.18362.0\UCRT\CORECRT_MEMORY.H
C:\PROGRAM FILES (X86)\WINDOWS KITS\10\INCLUDE\10.0.18362.0\UCRT\CORECRT_MEMCPY_S.H
C:\PROGRAM FILES (X86)\MICROSOFT VISUAL STUDIO\2019\COMMUNITY\VC\TOOLS\MSVC\14.23.28105\INCLUDE\VCRUNTIME_STRING.H
C:\PROGRAM FILES (X86)\WINDOWS KITS\10\INCLUDE\10.0.18362.0\UCRT\CORECRT_WSTRING.H
C:\PROGRAM FILES (X86)\MICROSOFT VISUAL STUDIO\2019\COMMUNITY\VC\TOOLS\MSVC\14.23.28105\INCLUDE\CWCHAR
C:\PROGRAM FILES (X86)\WINDOWS KITS\10\INCLUDE\10.0.18362.0\UCRT\WCHAR.H
C:\PROGRAM FILES (X86)\WINDOWS KITS\10\INCLUDE\10.0.18362.0\UCRT\CORECRT_WCONIO.H
C:\PROGRAM FILES (X86)\WINDOWS KITS\10\INCLUDE\10.0.18362.0\UCRT\CORECRT_WCTYPE.H
C:\PROGRAM FILES (X86)\WINDOWS KITS\10\INCLUDE\10.0.18362.0\UCRT\CORECRT_WDIRECT.H
C:\PROGRAM FILES (X86)\WINDOWS KITS\10\INCLUDE\10.0.18362.0\UCRT\CORECRT_WIO.H
C:\PROGRAM FILES (X86)\WINDOWS KITS\10\INCLUDE\10.0.18362.0\UCRT\CORECRT_WPROCESS.H
C:\PROGRAM FILES (X86)\WINDOWS KITS\10\INCLUDE\10.0.18362.0\UCRT\CORECRT_WTIME.H
C:\PROGRAM FILES (X86)\WINDOWS KITS\10\INCLUDE\10.0.18362.0\UCRT\SYS\STAT.H
C:\PROGRAM FILES (X86)\WINDOWS KITS\10\INCLUDE\10.0.18362.0\UCRT\SYS\TYPES.H
C:\PROGRAM FILES (X86)\MICROSOFT VISUAL STUDIO\2019\COMMUNITY\VC\TOOLS\MSVC\14.23.28105\INCLUDE\XMEMORY
C:\PROGRAM FILES (X86)\MICROSOFT VISUAL STUDIO\2019\COMMUNITY\VC\TOOLS\MSVC\14.23.28105\INCLUDE\CSTDINT
C:\PROGRAM FILES (X86)\MICROSOFT VISUAL STUDIO\2019\COMMUNITY\VC\TOOLS\MSVC\14.23.28105\INCLUDE\STDINT.H
C:\PROGRAM FILES (X86)\MICROSOFT VISUAL STUDIO\2019\COMMUNITY\VC\TOOLS\MSVC\14.23.28105\INCLUDE\LIMITS
C:\PROGRAM FILES (X86)\MICROSOFT VISUAL STUDIO\2019\COMMUNITY\VC\TOOLS\MSVC\14.23.28105\INCLUDE\CFLOAT
C:\PROGRAM FILES (X86)\WINDOWS KITS\10\INCLUDE\10.0.18362.0\UCRT\FLOAT.H
C:\PROGRAM FILES (X86)\MICROSOFT VISUAL STUDIO\2019\COMMUNITY\VC\TOOLS\MSVC\14.23.28105\INCLUDE\NEW
C:\PROGRAM FILES (X86)\MICROSOFT VISUAL STUDIO\2019\COMMUNITY\VC\TOOLS\MSVC\14.23.28105\INCLUDE\XATOMIC.H
C:\PROGRAM FILES (X86)\MICROSOFT VISUAL STUDIO\2019\COMMUNITY\VC\TOOLS\MSVC\14.23.28105\INCLUDE\INTRIN0.H
C:\PROGRAM FILES (X86)\MICROSOFT VISUAL STUDIO\2019\COMMUNITY\VC\TOOLS\MSVC\14.23.28105\INCLUDE\XUTILITY
C:\PROGRAM FILES (X86)\MICROSOFT VISUAL STUDIO\2019\COMMUNITY\VC\TOOLS\MSVC\14.23.28105\INCLUDE\UTILITY
C:\PROGRAM FILES (X86)\MICROSOFT VISUAL STUDIO\2019\COMMUNITY\VC\TOOLS\MSVC\14.23.28105\INCLUDE\XCALL_ONCE.H
C:\PROGRAM FILES (X86)\MICROSOFT VISUAL STUDIO\2019\COMMUNITY\VC\TOOLS\MSVC\14.23.28105\INCLUDE\XERRC.H
C:\PROGRAM FILES (X86)\MICROSOFT VISUAL STUDIO\2019\COMMUNITY\VC\TOOLS\MSVC\14.23.28105\INCLUDE\XLOCALE
C:\PROGRAM FILES (X86)\MICROSOFT VISUAL STUDIO\2019\COMMUNITY\VC\TOOLS\MSVC\14.23.28105\INCLUDE\MEMORY
C:\PROGRAM FILES (X86)\MICROSOFT VISUAL STUDIO\2019\COMMUNITY\VC\TOOLS\MSVC\14.23.28105\INCLUDE\TYPEINFO
C:\PROGRAM FILES (X86)\MICROSOFT VISUAL STUDIO\2019\COMMUNITY\VC\TOOLS\MSVC\14.23.28105\INCLUDE\VCRUNTIME_TYPEINFO.H
C:\PROGRAM FILES (X86)\MICROSOFT VISUAL STUDIO\2019\COMMUNITY\VC\TOOLS\MSVC\14.23.28105\INCLUDE\XFACET
C:\PROGRAM FILES (X86)\MICROSOFT VISUAL STUDIO\2019\COMMUNITY\VC\TOOLS\MSVC\14.23.28105\INCLUDE\XLOCINFO
C:\PROGRAM FILES (X86)\MICROSOFT VISUAL STUDIO\2019\COMMUNITY\VC\TOOLS\MSVC\14.23.28105\INCLUDE\XLOCINFO.H
C:\PROGRAM FILES (X86)\WINDOWS KITS\10\INCLUDE\10.0.18362.0\UCRT\CTYPE.H
C:\PROGRAM FILES (X86)\WINDOWS KITS\10\INCLUDE\10.0.18362.0\UCRT\LOCALE.H
C:\PROGRAM FILES (X86)\MICROSOFT VISUAL STUDIO\2019\COMMUNITY\VC\TOOLS\MSVC\14.23.28105\INCLUDE\FSTREAM
C:\PROGRAM FILES (X86)\MICROSOFT VISUAL STUDIO\2019\COMMUNITY\VC\TOOLS\MSVC\14.23.28105\INCLUDE\STRING
C:\PROGRAM FILES (X86)\MICROSOFT VISUAL STUDIO\2019\COMMUNITY\VC\TOOLS\MSVC\14.23.28105\INCLUDE\CCTYPE
C:\PROGRAM FILES (X86)\MICROSOFT VISUAL STUDIO\2019\COMMUNITY\VC\TOOLS\MSVC\14.23.28105\INCLUDE\VECTOR
C:\PROGRAM FILES (X86)\MICROSOFT VISUAL STUDIO\2019\COMMUNITY\VC\TOOLS\MSVC\14.23.28105\INCLUDE\IOMANIP
C:\PROGRAM FILES (X86)\MICROSOFT VISUAL STUDIO\2019\COMMUNITY\VC\TOOLS\MSVC\14.23.28105\INCLUDE\XLOCMON
C:\PROGRAM FILES (X86)\MICROSOFT VISUAL STUDIO\2019\COMMUNITY\VC\TOOLS\MSVC\14.23.28105\INCLUDE\XLOCTIME
C:\PROGRAM FILES (X86)\MICROSOFT VISUAL STUDIO\2019\COMMUNITY\VC\TOOLS\MSVC\14.23.28105\INCLUDE\CTIME
C:\PROGRAM FILES (X86)\WINDOWS KITS\10\INCLUDE\10.0.18362.0\UCRT\TIME.H
C:\PROGRAM FILES (X86)\MICROSOFT VISUAL STUDIO\2019\COMMUNITY\VC\TOOLS\MSVC\14.23.28105\INCLUDE\CHRONO
C:\PROGRAM FILES (X86)\MICROSOFT VISUAL STUDIO\2019\COMMUNITY\VC\TOOLS\MSVC\14.23.28105\INCLUDE\RATIO
C:\PROGRAM FILES (X86)\MICROSOFT VISUAL STUDIO\2019\COMMUNITY\VC\TOOLS\MSVC\14.23.28105\INCLUDE\THR\XTIMEC.H
C:\PROGRAM FILES (X86)\MICROSOFT VISUAL STUDIO\2019\COMMUNITY\VC\TOOLS\MSVC\14.23.28105\INCLUDE\THREAD
C:\PROGRAM FILES (X86)\WINDOWS KITS\10\INCLUDE\10.0.18362.0\UCRT\PROCESS.H
C:\PROGRAM FILES (X86)\WINDOWS KITS\10\INCLUDE\10.0.18362.0\UCRT\CORECRT_STARTUP.H
C:\PROGRAM FILES (X86)\MICROSOFT VISUAL STUDIO\2019\COMMUNITY\VC\TOOLS\MSVC\14.23.28105\INCLUDE\VCRUNTIME_STARTUP.H
C:\PROGRAM FILES (X86)\MICROSOFT VISUAL STUDIO\2019\COMMUNITY\VC\TOOLS\MSVC\14.23.28105\INCLUDE\THR\XTHREADS.H
C:\PROGRAM FILES (X86)\MICROSOFT VISUAL STUDIO\2019\COMMUNITY\VC\TOOLS\MSVC\14.23.28105\INCLUDE\TUPLE
F:\PROJECT_REZA\CLOUD\OPENPLANE\LINKEDFILES\GLEW\INCLUDE\GLEW.H
C:\PROGRAM FILES (X86)\WINDOWS KITS\10\INCLUDE\10.0.18362.0\UM\GL\GLU.H
C:\PROGRAM FILES (X86)\WINDOWS KITS\10\INCLUDE\10.0.18362.0\SHARED\WINAPIFAMILY.H
C:\PROGRAM FILES (X86)\WINDOWS KITS\10\INCLUDE\10.0.18362.0\SHARED\WINPACKAGEFAMILY.H
C:\PROGRAM FILES (X86)\WINDOWS KITS\10\INCLUDE\10.0.18362.0\UM\GL\GL.H
F:\PROJECT_REZA\CLOUD\OPENPLANE\LINKEDFILES\GLFW\INCLUDE\GLFW3.H
F:\PROJECT_REZA\CLOUD\OPENPLANE\LINKEDFILES\GLM\INCLUDE\GLM.HPP
F:\PROJECT_REZA\CLOUD\OPENPLANE\LINKEDFILES\GLM\INCLUDE\DETAIL\_FIXES.HPP
F:\PROJECT_REZA\CLOUD\OPENPLANE\LINKEDFILES\GLM\INCLUDE\DETAIL\SETUP.HPP
C:\PROGRAM FILES (X86)\MICROSOFT VISUAL STUDIO\2019\COMMUNITY\VC\TOOLS\MSVC\14.23.28105\INCLUDE\CASSERT
C:\PROGRAM FILES (X86)\WINDOWS KITS\10\INCLUDE\10.0.18362.0\UCRT\ASSERT.H
F:\PROJECT_REZA\CLOUD\OPENPLANE\LINKEDFILES\GLM\INCLUDE\SIMD\PLATFORM.H
F:\PROJECT_REZA\CLOUD\OPENPLANE\LINKEDFILES\GLM\INCLUDE\FWD.HPP
F:\PROJECT_REZA\CLOUD\OPENPLANE\LINKEDFILES\GLM\INCLUDE\DETAIL\QUALIFIER.HPP
F:\PROJECT_REZA\CLOUD\OPENPLANE\LINKEDFILES\GLM\INCLUDE\VEC2.HPP
F:\PROJECT_REZA\CLOUD\OPENPLANE\LINKEDFILES\GLM\INCLUDE\EXT\VECTOR_BOOL2.HPP
F:\PROJECT_REZA\CLOUD\OPENPLANE\LINKEDFILES\GLM\INCLUDE\DETAIL\TYPE_VEC2.HPP
F:\PROJECT_REZA\CLOUD\OPENPLANE\LINKEDFILES\GLM\INCLUDE\DETAIL\TYPE_VEC2.INL
F:\PROJECT_REZA\CLOUD\OPENPLANE\LINKEDFILES\GLM\INCLUDE\DETAIL\COMPUTE_VECTOR_RELATIONAL.HPP
F:\PROJECT_REZA\CLOUD\OPENPLANE\LINKEDFILES\GLM\INCLUDE\EXT\VECTOR_BOOL2_PRECISION.HPP
F:\PROJECT_REZA\CLOUD\OPENPLANE\LINKEDFILES\GLM\INCLUDE\EXT\VECTOR_FLOAT2.HPP
F:\PROJECT_REZA\CLOUD\OPENPLANE\LINKEDFILES\GLM\INCLUDE\EXT\VECTOR_FLOAT2_PRECISION.HPP
F:\PROJECT_REZA\CLOUD\OPENPLANE\LINKEDFILES\GLM\INCLUDE\EXT\VECTOR_DOUBLE2.HPP
F:\PROJECT_REZA\CLOUD\OPENPLANE\LINKEDFILES\GLM\INCLUDE\EXT\VECTOR_DOUBLE2_PRECISION.HPP
F:\PROJECT_REZA\CLOUD\OPENPLANE\LINKEDFILES\GLM\INCLUDE\EXT\VECTOR_INT2.HPP
F:\PROJECT_REZA\CLOUD\OPENPLANE\LINKEDFILES\GLM\INCLUDE\EXT\VECTOR_INT2_PRECISION.HPP
F:\PROJECT_REZA\CLOUD\OPENPLANE\LINKEDFILES\GLM\INCLUDE\EXT\VECTOR_UINT2.HPP
F:\PROJECT_REZA\CLOUD\OPENPLANE\LINKEDFILES\GLM\INCLUDE\EXT\VECTOR_UINT2_PRECISION.HPP
F:\PROJECT_REZA\CLOUD\OPENPLANE\LINKEDFILES\GLM\INCLUDE\VEC3.HPP
F:\PROJECT_REZA\CLOUD\OPENPLANE\LINKEDFILES\GLM\INCLUDE\EXT\VECTOR_BOOL3.HPP
F:\PROJECT_REZA\CLOUD\OPENPLANE\LINKEDFILES\GLM\INCLUDE\DETAIL\TYPE_VEC3.HPP
F:\PROJECT_REZA\CLOUD\OPENPLANE\LINKEDFILES\GLM\INCLUDE\DETAIL\TYPE_VEC3.INL
F:\PROJECT_REZA\CLOUD\OPENPLANE\LINKEDFILES\GLM\INCLUDE\EXT\VECTOR_BOOL3_PRECISION.HPP
F:\PROJECT_REZA\CLOUD\OPENPLANE\LINKEDFILES\GLM\INCLUDE\EXT\VECTOR_FLOAT3.HPP
F:\PROJECT_REZA\CLOUD\OPENPLANE\LINKEDFILES\GLM\INCLUDE\EXT\VECTOR_FLOAT3_PRECISION.HPP
F:\PROJECT_REZA\CLOUD\OPENPLANE\LINKEDFILES\GLM\INCLUDE\EXT\VECTOR_DOUBLE3.HPP
F:\PROJECT_REZA\CLOUD\OPENPLANE\LINKEDFILES\GLM\INCLUDE\EXT\VECTOR_DOUBLE3_PRECISION.HPP
F:\PROJECT_REZA\CLOUD\OPENPLANE\LINKEDFILES\GLM\INCLUDE\EXT\VECTOR_INT3.HPP
F:\PROJECT_REZA\CLOUD\OPENPLANE\LINKEDFILES\GLM\INCLUDE\EXT\VECTOR_INT3_PRECISION.HPP
F:\PROJECT_REZA\CLOUD\OPENPLANE\LINKEDFILES\GLM\INCLUDE\EXT\VECTOR_UINT3.HPP
F:\PROJECT_REZA\CLOUD\OPENPLANE\LINKEDFILES\GLM\INCLUDE\EXT\VECTOR_UINT3_PRECISION.HPP
F:\PROJECT_REZA\CLOUD\OPENPLANE\LINKEDFILES\GLM\INCLUDE\VEC4.HPP
F:\PROJECT_REZA\CLOUD\OPENPLANE\LINKEDFILES\GLM\INCLUDE\EXT\VECTOR_BOOL4.HPP
F:\PROJECT_REZA\CLOUD\OPENPLANE\LINKEDFILES\GLM\INCLUDE\DETAIL\TYPE_VEC4.HPP
F:\PROJECT_REZA\CLOUD\OPENPLANE\LINKEDFILES\GLM\INCLUDE\DETAIL\TYPE_VEC4.INL
F:\PROJECT_REZA\CLOUD\OPENPLANE\LINKEDFILES\GLM\INCLUDE\EXT\VECTOR_BOOL4_PRECISION.HPP
F:\PROJECT_REZA\CLOUD\OPENPLANE\LINKEDFILES\GLM\INCLUDE\EXT\VECTOR_FLOAT4.HPP
F:\PROJECT_REZA\CLOUD\OPENPLANE\LINKEDFILES\GLM\INCLUDE\EXT\VECTOR_FLOAT4_PRECISION.HPP
F:\PROJECT_REZA\CLOUD\OPENPLANE\LINKEDFILES\GLM\INCLUDE\EXT\VECTOR_DOUBLE4.HPP
F:\PROJECT_REZA\CLOUD\OPENPLANE\LINKEDFILES\GLM\INCLUDE\EXT\VECTOR_DOUBLE4_PRECISION.HPP
F:\PROJECT_REZA\CLOUD\OPENPLANE\LINKEDFILES\GLM\INCLUDE\EXT\VECTOR_INT4.HPP
F:\PROJECT_REZA\CLOUD\OPENPLANE\LINKEDFILES\GLM\INCLUDE\EXT\VECTOR_INT4_PRECISION.HPP
F:\PROJECT_REZA\CLOUD\OPENPLANE\LINKEDFILES\GLM\INCLUDE\EXT\VECTOR_UINT4.HPP
F:\PROJECT_REZA\CLOUD\OPENPLANE\LINKEDFILES\GLM\INCLUDE\EXT\VECTOR_UINT4_PRECISION.HPP
F:\PROJECT_REZA\CLOUD\OPENPLANE\LINKEDFILES\GLM\INCLUDE\MAT2X2.HPP
F:\PROJECT_REZA\CLOUD\OPENPLANE\LINKEDFILES\GLM\INCLUDE\EXT\MATRIX_DOUBLE2X2.HPP
F:\PROJECT_REZA\CLOUD\OPENPLANE\LINKEDFILES\GLM\INCLUDE\DETAIL\TYPE_MAT2X2.HPP
F:\PROJECT_REZA\CLOUD\OPENPLANE\LINKEDFILES\GLM\INCLUDE\DETAIL\TYPE_MAT2X2.INL
F:\PROJECT_REZA\CLOUD\OPENPLANE\LINKEDFILES\GLM\INCLUDE\MATRIX.HPP
F:\PROJECT_REZA\CLOUD\OPENPLANE\LINKEDFILES\GLM\INCLUDE\MAT2X3.HPP
F:\PROJECT_REZA\CLOUD\OPENPLANE\LINKEDFILES\GLM\INCLUDE\EXT\MATRIX_DOUBLE2X3.HPP
F:\PROJECT_REZA\CLOUD\OPENPLANE\LINKEDFILES\GLM\INCLUDE\DETAIL\TYPE_MAT2X3.HPP
F:\PROJECT_REZA\CLOUD\OPENPLANE\LINKEDFILES\GLM\INCLUDE\DETAIL\TYPE_MAT2X3.INL
F:\PROJECT_REZA\CLOUD\OPENPLANE\LINKEDFILES\GLM\INCLUDE\EXT\MATRIX_DOUBLE2X3_PRECISION.HPP
F:\PROJECT_REZA\CLOUD\OPENPLANE\LINKEDFILES\GLM\INCLUDE\EXT\MATRIX_FLOAT2X3.HPP
F:\PROJECT_REZA\CLOUD\OPENPLANE\LINKEDFILES\GLM\INCLUDE\EXT\MATRIX_FLOAT2X3_PRECISION.HPP
F:\PROJECT_REZA\CLOUD\OPENPLANE\LINKEDFILES\GLM\INCLUDE\MAT2X4.HPP
F:\PROJECT_REZA\CLOUD\OPENPLANE\LINKEDFILES\GLM\INCLUDE\EXT\MATRIX_DOUBLE2X4.HPP
F:\PROJECT_REZA\CLOUD\OPENPLANE\LINKEDFILES\GLM\INCLUDE\DETAIL\TYPE_MAT2X4.HPP
F:\PROJECT_REZA\CLOUD\OPENPLANE\LINKEDFILES\GLM\INCLUDE\DETAIL\TYPE_MAT2X4.INL
F:\PROJECT_REZA\CLOUD\OPENPLANE\LINKEDFILES\GLM\INCLUDE\EXT\MATRIX_DOUBLE2X4_PRECISION.HPP
F:\PROJECT_REZA\CLOUD\OPENPLANE\LINKEDFILES\GLM\INCLUDE\EXT\MATRIX_FLOAT2X4.HPP
F:\PROJECT_REZA\CLOUD\OPENPLANE\LINKEDFILES\GLM\INCLUDE\EXT\MATRIX_FLOAT2X4_PRECISION.HPP
F:\PROJECT_REZA\CLOUD\OPENPLANE\LINKEDFILES\GLM\INCLUDE\MAT3X2.HPP
F:\PROJECT_REZA\CLOUD\OPENPLANE\LINKEDFILES\GLM\INCLUDE\EXT\MATRIX_DOUBLE3X2.HPP
F:\PROJECT_REZA\CLOUD\OPENPLANE\LINKEDFILES\GLM\INCLUDE\DETAIL\TYPE_MAT3X2.HPP
F:\PROJECT_REZA\CLOUD\OPENPLANE\LINKEDFILES\GLM\INCLUDE\DETAIL\TYPE_MAT3X2.INL
F:\PROJECT_REZA\CLOUD\OPENPLANE\LINKEDFILES\GLM\INCLUDE\EXT\MATRIX_DOUBLE3X2_PRECISION.HPP
F:\PROJECT_REZA\CLOUD\OPENPLANE\LINKEDFILES\GLM\INCLUDE\EXT\MATRIX_FLOAT3X2.HPP
F:\PROJECT_REZA\CLOUD\OPENPLANE\LINKEDFILES\GLM\INCLUDE\EXT\MATRIX_FLOAT3X2_PRECISION.HPP
F:\PROJECT_REZA\CLOUD\OPENPLANE\LINKEDFILES\GLM\INCLUDE\MAT3X3.HPP
F:\PROJECT_REZA\CLOUD\OPENPLANE\LINKEDFILES\GLM\INCLUDE\EXT\MATRIX_DOUBLE3X3.HPP
F:\PROJECT_REZA\CLOUD\OPENPLANE\LINKEDFILES\GLM\INCLUDE\DETAIL\TYPE_MAT3X3.HPP
F:\PROJECT_REZA\CLOUD\OPENPLANE\LINKEDFILES\GLM\INCLUDE\DETAIL\TYPE_MAT3X3.INL
F:\PROJECT_REZA\CLOUD\OPENPLANE\LINKEDFILES\GLM\INCLUDE\EXT\MATRIX_DOUBLE3X3_PRECISION.HPP
F:\PROJECT_REZA\CLOUD\OPENPLANE\LINKEDFILES\GLM\INCLUDE\EXT\MATRIX_FLOAT3X3.HPP
F:\PROJECT_REZA\CLOUD\OPENPLANE\LINKEDFILES\GLM\INCLUDE\EXT\MATRIX_FLOAT3X3_PRECISION.HPP
F:\PROJECT_REZA\CLOUD\OPENPLANE\LINKEDFILES\GLM\INCLUDE\MAT3X4.HPP
F:\PROJECT_REZA\CLOUD\OPENPLANE\LINKEDFILES\GLM\INCLUDE\EXT\MATRIX_DOUBLE3X4.HPP
F:\PROJECT_REZA\CLOUD\OPENPLANE\LINKEDFILES\GLM\INCLUDE\DETAIL\TYPE_MAT3X4.HPP
F:\PROJECT_REZA\CLOUD\OPENPLANE\LINKEDFILES\GLM\INCLUDE\DETAIL\TYPE_MAT3X4.INL
F:\PROJECT_REZA\CLOUD\OPENPLANE\LINKEDFILES\GLM\INCLUDE\EXT\MATRIX_DOUBLE3X4_PRECISION.HPP
F:\PROJECT_REZA\CLOUD\OPENPLANE\LINKEDFILES\GLM\INCLUDE\EXT\MATRIX_FLOAT3X4.HPP
F:\PROJECT_REZA\CLOUD\OPENPLANE\LINKEDFILES\GLM\INCLUDE\EXT\MATRIX_FLOAT3X4_PRECISION.HPP
F:\PROJECT_REZA\CLOUD\OPENPLANE\LINKEDFILES\GLM\INCLUDE\MAT4X2.HPP
F:\PROJECT_REZA\CLOUD\OPENPLANE\LINKEDFILES\GLM\INCLUDE\EXT\MATRIX_DOUBLE4X2.HPP
F:\PROJECT_REZA\CLOUD\OPENPLANE\LINKEDFILES\GLM\INCLUDE\DETAIL\TYPE_MAT4X2.HPP
F:\PROJECT_REZA\CLOUD\OPENPLANE\LINKEDFILES\GLM\INCLUDE\DETAIL\TYPE_MAT4X2.INL
F:\PROJECT_REZA\CLOUD\OPENPLANE\LINKEDFILES\GLM\INCLUDE\EXT\MATRIX_DOUBLE4X2_PRECISION.HPP
F:\PROJECT_REZA\CLOUD\OPENPLANE\LINKEDFILES\GLM\INCLUDE\EXT\MATRIX_FLOAT4X2.HPP
F:\PROJECT_REZA\CLOUD\OPENPLANE\LINKEDFILES\GLM\INCLUDE\EXT\MATRIX_FLOAT4X2_PRECISION.HPP
F:\PROJECT_REZA\CLOUD\OPENPLANE\LINKEDFILES\GLM\INCLUDE\MAT4X3.HPP
F:\PROJECT_REZA\CLOUD\OPENPLANE\LINKEDFILES\GLM\INCLUDE\EXT\MATRIX_DOUBLE4X3.HPP
F:\PROJECT_REZA\CLOUD\OPENPLANE\LINKEDFILES\GLM\INCLUDE\DETAIL\TYPE_MAT4X3.HPP
F:\PROJECT_REZA\CLOUD\OPENPLANE\LINKEDFILES\GLM\INCLUDE\DETAIL\TYPE_MAT4X3.INL
F:\PROJECT_REZA\CLOUD\OPENPLANE\LINKEDFILES\GLM\INCLUDE\EXT\MATRIX_DOUBLE4X3_PRECISION.HPP
F:\PROJECT_REZA\CLOUD\OPENPLANE\LINKEDFILES\GLM\INCLUDE\EXT\MATRIX_FLOAT4X3.HPP
F:\PROJECT_REZA\CLOUD\OPENPLANE\LINKEDFILES\GLM\INCLUDE\EXT\MATRIX_FLOAT4X3_PRECISION.HPP
F:\PROJECT_REZA\CLOUD\OPENPLANE\LINKEDFILES\GLM\INCLUDE\MAT4X4.HPP
F:\PROJECT_REZA\CLOUD\OPENPLANE\LINKEDFILES\GLM\INCLUDE\EXT\MATRIX_DOUBLE4X4.HPP
F:\PROJECT_REZA\CLOUD\OPENPLANE\LINKEDFILES\GLM\INCLUDE\DETAIL\TYPE_MAT4X4.HPP
F:\PROJECT_REZA\CLOUD\OPENPLANE\LINKEDFILES\GLM\INCLUDE\DETAIL\TYPE_MAT4X4.INL
F:\PROJECT_REZA\CLOUD\OPENPLANE\LINKEDFILES\GLM\INCLUDE\EXT\MATRIX_DOUBLE4X4_PRECISION.HPP
F:\PROJECT_REZA\CLOUD\OPENPLANE\LINKEDFILES\GLM\INCLUDE\EXT\MATRIX_FLOAT4X4.HPP
F:\PROJECT_REZA\CLOUD\OPENPLANE\LINKEDFILES\GLM\INCLUDE\EXT\MATRIX_FLOAT4X4_PRECISION.HPP
F:\PROJECT_REZA\CLOUD\OPENPLANE\LINKEDFILES\GLM\INCLUDE\DETAIL\FUNC_MATRIX.INL
F:\PROJECT_REZA\CLOUD\OPENPLANE\LINKEDFILES\GLM\INCLUDE\GEOMETRIC.HPP
F:\PROJECT_REZA\CLOUD\OPENPLANE\LINKEDFILES\GLM\INCLUDE\DETAIL\FUNC_GEOMETRIC.INL
F:\PROJECT_REZA\CLOUD\OPENPLANE\LINKEDFILES\GLM\INCLUDE\EXPONENTIAL.HPP
F:\PROJECT_REZA\CLOUD\OPENPLANE\LINKEDFILES\GLM\INCLUDE\DETAIL\TYPE_VEC1.HPP
F:\PROJECT_REZA\CLOUD\OPENPLANE\LINKEDFILES\GLM\INCLUDE\DETAIL\TYPE_VEC1.INL
F:\PROJECT_REZA\CLOUD\OPENPLANE\LINKEDFILES\GLM\INCLUDE\DETAIL\FUNC_EXPONENTIAL.INL
F:\PROJECT_REZA\CLOUD\OPENPLANE\LINKEDFILES\GLM\INCLUDE\VECTOR_RELATIONAL.HPP
F:\PROJECT_REZA\CLOUD\OPENPLANE\LINKEDFILES\GLM\INCLUDE\DETAIL\FUNC_VECTOR_RELATIONAL.INL
F:\PROJECT_REZA\CLOUD\OPENPLANE\LINKEDFILES\GLM\INCLUDE\DETAIL\_VECTORIZE.HPP
F:\PROJECT_REZA\CLOUD\OPENPLANE\LINKEDFILES\GLM\INCLUDE\COMMON.HPP
F:\PROJECT_REZA\CLOUD\OPENPLANE\LINKEDFILES\GLM\INCLUDE\DETAIL\FUNC_COMMON.INL
F:\PROJECT_REZA\CLOUD\OPENPLANE\LINKEDFILES\GLM\INCLUDE\DETAIL\COMPUTE_COMMON.HPP
F:\PROJECT_REZA\CLOUD\OPENPLANE\LINKEDFILES\GLM\INCLUDE\EXT\MATRIX_DOUBLE2X2_PRECISION.HPP
F:\PROJECT_REZA\CLOUD\OPENPLANE\LINKEDFILES\GLM\INCLUDE\EXT\MATRIX_FLOAT2X2.HPP
F:\PROJECT_REZA\CLOUD\OPENPLANE\LINKEDFILES\GLM\INCLUDE\EXT\MATRIX_FLOAT2X2_PRECISION.HPP
F:\PROJECT_REZA\CLOUD\OPENPLANE\LINKEDFILES\GLM\INCLUDE\TRIGONOMETRIC.HPP
F:\PROJECT_REZA\CLOUD\OPENPLANE\LINKEDFILES\GLM\INCLUDE\DETAIL\FUNC_TRIGONOMETRIC.INL
F:\PROJECT_REZA\CLOUD\OPENPLANE\LINKEDFILES\GLM\INCLUDE\PACKING.HPP
F:\PROJECT_REZA\CLOUD\OPENPLANE\LINKEDFILES\GLM\INCLUDE\DETAIL\FUNC_PACKING.INL
F:\PROJECT_REZA\CLOUD\OPENPLANE\LINKEDFILES\GLM\INCLUDE\DETAIL\TYPE_HALF.HPP
F:\PROJECT_REZA\CLOUD\OPENPLANE\LINKEDFILES\GLM\INCLUDE\DETAIL\TYPE_HALF.INL
F:\PROJECT_REZA\CLOUD\OPENPLANE\LINKEDFILES\GLM\INCLUDE\INTEGER.HPP
F:\PROJECT_REZA\CLOUD\OPENPLANE\LINKEDFILES\GLM\INCLUDE\DETAIL\FUNC_INTEGER.INL
C:\PROGRAM FILES (X86)\MICROSOFT VISUAL STUDIO\2019\COMMUNITY\VC\TOOLS\MSVC\14.23.28105\INCLUDE\INTRIN.H
C:\PROGRAM FILES (X86)\MICROSOFT VISUAL STUDIO\2019\COMMUNITY\VC\TOOLS\MSVC\14.23.28105\INCLUDE\SETJMP.H
C:\PROGRAM FILES (X86)\MICROSOFT VISUAL STUDIO\2019\COMMUNITY\VC\TOOLS\MSVC\14.23.28105\INCLUDE\IMMINTRIN.H
C:\PROGRAM FILES (X86)\MICROSOFT VISUAL STUDIO\2019\COMMUNITY\VC\TOOLS\MSVC\14.23.28105\INCLUDE\WMMINTRIN.H
C:\PROGRAM FILES (X86)\MICROSOFT VISUAL STUDIO\2019\COMMUNITY\VC\TOOLS\MSVC\14.23.28105\INCLUDE\NMMINTRIN.H
C:\PROGRAM FILES (X86)\MICROSOFT VISUAL STUDIO\2019\COMMUNITY\VC\TOOLS\MSVC\14.23.28105\INCLUDE\SMMINTRIN.H
C:\PROGRAM FILES (X86)\MICROSOFT VISUAL STUDIO\2019\COMMUNITY\VC\TOOLS\MSVC\14.23.28105\INCLUDE\TMMINTRIN.H
C:\PROGRAM FILES (X86)\MICROSOFT VISUAL STUDIO\2019\COMMUNITY\VC\TOOLS\MSVC\14.23.28105\INCLUDE\PMMINTRIN.H
C:\PROGRAM FILES (X86)\MICROSOFT VISUAL STUDIO\2019\COMMUNITY\VC\TOOLS\MSVC\14.23.28105\INCLUDE\EMMINTRIN.H
C:\PROGRAM FILES (X86)\MICROSOFT VISUAL STUDIO\2019\COMMUNITY\VC\TOOLS\MSVC\14.23.28105\INCLUDE\XMMINTRIN.H
C:\PROGRAM FILES (X86)\MICROSOFT VISUAL STUDIO\2019\COMMUNITY\VC\TOOLS\MSVC\14.23.28105\INCLUDE\MMINTRIN.H
C:\PROGRAM FILES (X86)\MICROSOFT VISUAL STUDIO\2019\COMMUNITY\VC\TOOLS\MSVC\14.23.28105\INCLUDE\ZMMINTRIN.H
C:\PROGRAM FILES (X86)\MICROSOFT VISUAL STUDIO\2019\COMMUNITY\VC\TOOLS\MSVC\14.23.28105\INCLUDE\AMMINTRIN.H
C:\PROGRAM FILES (X86)\MICROSOFT VISUAL STUDIO\2019\COMMUNITY\VC\TOOLS\MSVC\14.23.28105\INCLUDE\MM3DNOW.H
F:\PROJECT_REZA\CLOUD\OPENPLANE\LINKEDFILES\GLM\INCLUDE\GTC\MATRIX_TRANSFORM.HPP
F:\PROJECT_REZA\CLOUD\OPENPLANE\LINKEDFILES\GLM\INCLUDE\EXT\MATRIX_PROJECTION.HPP
F:\PROJECT_REZA\CLOUD\OPENPLANE\LINKEDFILES\GLM\INCLUDE\GTC\CONSTANTS.HPP
F:\PROJECT_REZA\CLOUD\OPENPLANE\LINKEDFILES\GLM\INCLUDE\EXT\SCALAR_CONSTANTS.HPP
F:\PROJECT_REZA\CLOUD\OPENPLANE\LINKEDFILES\GLM\INCLUDE\EXT\SCALAR_CONSTANTS.INL
F:\PROJECT_REZA\CLOUD\OPENPLANE\LINKEDFILES\GLM\INCLUDE\GTC\CONSTANTS.INL
F:\PROJECT_REZA\CLOUD\OPENPLANE\LINKEDFILES\GLM\INCLUDE\EXT\MATRIX_PROJECTION.INL
F:\PROJECT_REZA\CLOUD\OPENPLANE\LINKEDFILES\GLM\INCLUDE\EXT\MATRIX_CLIP_SPACE.HPP
F:\PROJECT_REZA\CLOUD\OPENPLANE\LINKEDFILES\GLM\INCLUDE\EXT\MATRIX_CLIP_SPACE.INL
F:\PROJECT_REZA\CLOUD\OPENPLANE\LINKEDFILES\GLM\INCLUDE\EXT\MATRIX_TRANSFORM.HPP
F:\PROJECT_REZA\CLOUD\OPENPLANE\LINKEDFILES\GLM\INCLUDE\EXT\MATRIX_TRANSFORM.INL
F:\PROJECT_REZA\CLOUD\OPENPLANE\LINKEDFILES\GLM\INCLUDE\GTC\MATRIX_TRANSFORM.INL
F:\PROJECT_REZA\CLOUD\OPENPLANE\LINKEDFILES\GLM\INCLUDE\GTC\TYPE_PTR.HPP
F:\PROJECT_REZA\CLOUD\OPENPLANE\LINKEDFILES\GLM\INCLUDE\GTC\QUATERNION.HPP
F:\PROJECT_REZA\CLOUD\OPENPLANE\LINKEDFILES\GLM\INCLUDE\EXT\VECTOR_RELATIONAL.HPP
F:\PROJECT_REZA\CLOUD\OPENPLANE\LINKEDFILES\GLM\INCLUDE\EXT\VECTOR_RELATIONAL.INL
F:\PROJECT_REZA\CLOUD\OPENPLANE\LINKEDFILES\GLM\INCLUDE\DETAIL\TYPE_FLOAT.HPP
F:\PROJECT_REZA\CLOUD\OPENPLANE\LINKEDFILES\GLM\INCLUDE\EXT\QUATERNION_COMMON.HPP
F:\PROJECT_REZA\CLOUD\OPENPLANE\LINKEDFILES\GLM\INCLUDE\EXT\QUATERNION_GEOMETRIC.HPP
F:\PROJECT_REZA\CLOUD\OPENPLANE\LINKEDFILES\GLM\INCLUDE\EXT\QUATERNION_GEOMETRIC.INL
F:\PROJECT_REZA\CLOUD\OPENPLANE\LINKEDFILES\GLM\INCLUDE\EXT\QUATERNION_COMMON.INL
F:\PROJECT_REZA\CLOUD\OPENPLANE\LINKEDFILES\GLM\INCLUDE\EXT\QUATERNION_FLOAT.HPP
F:\PROJECT_REZA\CLOUD\OPENPLANE\LINKEDFILES\GLM\INCLUDE\DETAIL\TYPE_QUAT.HPP
F:\PROJECT_REZA\CLOUD\OPENPLANE\LINKEDFILES\GLM\INCLUDE\EXT\QUATERNION_RELATIONAL.HPP
F:\PROJECT_REZA\CLOUD\OPENPLANE\LINKEDFILES\GLM\INCLUDE\EXT\QUATERNION_RELATIONAL.INL
F:\PROJECT_REZA\CLOUD\OPENPLANE\LINKEDFILES\GLM\INCLUDE\DETAIL\TYPE_QUAT.INL
F:\PROJECT_REZA\CLOUD\OPENPLANE\LINKEDFILES\GLM\INCLUDE\EXT\QUATERNION_FLOAT_PRECISION.HPP
F:\PROJECT_REZA\CLOUD\OPENPLANE\LINKEDFILES\GLM\INCLUDE\EXT\QUATERNION_DOUBLE.HPP
F:\PROJECT_REZA\CLOUD\OPENPLANE\LINKEDFILES\GLM\INCLUDE\EXT\QUATERNION_DOUBLE_PRECISION.HPP
F:\PROJECT_REZA\CLOUD\OPENPLANE\LINKEDFILES\GLM\INCLUDE\EXT\QUATERNION_TRIGONOMETRIC.HPP
F:\PROJECT_REZA\CLOUD\OPENPLANE\LINKEDFILES\GLM\INCLUDE\EXT\QUATERNION_TRIGONOMETRIC.INL
F:\PROJECT_REZA\CLOUD\OPENPLANE\LINKEDFILES\GLM\INCLUDE\EXT\QUATERNION_TRANSFORM.HPP
F:\PROJECT_REZA\CLOUD\OPENPLANE\LINKEDFILES\GLM\INCLUDE\EXT\QUATERNION_TRANSFORM.INL
F:\PROJECT_REZA\CLOUD\OPENPLANE\LINKEDFILES\GLM\INCLUDE\GTC\QUATERNION.INL
F:\PROJECT_REZA\CLOUD\OPENPLANE\LINKEDFILES\GLM\INCLUDE\GTC\EPSILON.HPP
F:\PROJECT_REZA\CLOUD\OPENPLANE\LINKEDFILES\GLM\INCLUDE\GTC\EPSILON.INL
F:\PROJECT_REZA\CLOUD\OPENPLANE\LINKEDFILES\GLM\INCLUDE\GTC\VEC1.HPP
F:\PROJECT_REZA\CLOUD\OPENPLANE\LINKEDFILES\GLM\INCLUDE\EXT\VECTOR_BOOL1.HPP
F:\PROJECT_REZA\CLOUD\OPENPLANE\LINKEDFILES\GLM\INCLUDE\EXT\VECTOR_BOOL1_PRECISION.HPP
F:\PROJECT_REZA\CLOUD\OPENPLANE\LINKEDFILES\GLM\INCLUDE\EXT\VECTOR_FLOAT1.HPP
F:\PROJECT_REZA\CLOUD\OPENPLANE\LINKEDFILES\GLM\INCLUDE\EXT\VECTOR_FLOAT1_PRECISION.HPP
F:\PROJECT_REZA\CLOUD\OPENPLANE\LINKEDFILES\GLM\INCLUDE\EXT\VECTOR_DOUBLE1.HPP
F:\PROJECT_REZA\CLOUD\OPENPLANE\LINKEDFILES\GLM\INCLUDE\EXT\VECTOR_DOUBLE1_PRECISION.HPP
F:\PROJECT_REZA\CLOUD\OPENPLANE\LINKEDFILES\GLM\INCLUDE\EXT\VECTOR_INT1.HPP
F:\PROJECT_REZA\CLOUD\OPENPLANE\LINKEDFILES\GLM\INCLUDE\EXT\VECTOR_INT1_PRECISION.HPP
F:\PROJECT_REZA\CLOUD\OPENPLANE\LINKEDFILES\GLM\INCLUDE\EXT\VECTOR_UINT1.HPP
F:\PROJECT_REZA\CLOUD\OPENPLANE\LINKEDFILES\GLM\INCLUDE\EXT\VECTOR_UINT1_PRECISION.HPP
F:\PROJECT_REZA\CLOUD\OPENPLANE\LINKEDFILES\GLM\INCLUDE\GTC\TYPE_PTR.INL
F:\PROJECT_REZA\CLOUD\OPENPLANE\LINKEDFILES\SOIL2\INCLUDE\SOIL2.H
